Division,WeightClassKg,Place,Name,Team,BodyweightKg,Best3SquatKg,Best3BenchKg,Best3DeadliftKg,TotalKg,Equipment,Event,Sex
Boys,51.71,1,Jordan Wilkerson,Keller Central,51.62,188.24,106.59,215.46,510.29,Single-ply,SBD,M
Boys,51.71,2,Stephen Gaut,Keller Central,51.71,154.22,102.06,161.03,417.3,Single-ply,SBD,M
Boys,51.71,3,Sam Collier,Lake Dallas,50.98,129.27,92.99,145.15,367.41,Single-ply,SBD,M
Boys,51.71,4,Isaac Villalta,Little Elm,49.99,149.69,70.31,142.88,362.87,Single-ply,SBD,M
Boys,51.71,5,Trevon Atchison,Fort Worth Polytechnic,51.44,122.47,68.04,136.08,326.59,Single-ply,SBD,M
Boys,51.71,6,Gianluca Figueroa,Carrollton Smith,49.08,113.4,65.77,133.81,312.98,Single-ply,SBD,M
Boys,51.71,7,Sergio Mota,Fort Worth Chisholm Trail,51.35,113.4,68.04,129.27,310.71,Single-ply,SBD,M
Boys,51.71,8,Aj Sneed,Richardson Lake Highlands,50.26,115.67,68.04,120.2,303.91,Single-ply,SBD,M
Boys,51.71,9,Gordan Griesel,Fort Worth Boswell,50.71,104.33,70.31,120.2,294.84,Single-ply,SBD,M
Boys,51.71,10,Elijah Simental,Hurst Bell,50.71,104.33,43.09,127.01,274.42,Single-ply,SBD,M
Boys,51.71,NS,Jayvon Bailey,Carrollton Smith,,,,,,Single-ply,SBD,M
Boys,51.71,DQ,Chasmon Davis,Everman,51.07,147.42,,,,Single-ply,SBD,M
Boys,51.71,DQ,Rolando Guajardo,Frisco Centennial,51.53,,,,,Single-ply,SBD,M
Boys,55.79,1,Ever Barron,Everman,55.34,192.78,113.4,192.78,498.95,Single-ply,SBD,M
Boys,55.79,2,Drake Fucuals,Cedar Hill,55.79,176.9,90.72,167.83,435.45,Single-ply,SBD,M
Boys,55.79,3,Zachary Doyle,Royse City,54.98,174.63,83.91,151.95,410.5,Single-ply,SBD,M
Boys,55.79,4,Todd Henderson,Richardson Lake Highlands,54.98,149.69,90.72,158.76,399.16,Single-ply,SBD,M
Boys,55.79,5,Korey Grant,Weatherford,53.61,140.61,92.99,154.22,387.82,Single-ply,SBD,M
Boys,55.79,6,Nic Schnitzius,Dallas Jesuit,55.25,154.22,70.31,158.76,383.29,Single-ply,SBD,M
Boys,55.79,7,Pramis Subedi,Keller Fossil Ridge,54.07,154.22,68.04,149.69,371.95,Single-ply,SBD,M
Boys,55.79,8,Promise Ogbonna,Cedar Hill,54.98,147.42,68.04,149.69,365.14,Single-ply,SBD,M
Boys,55.79,9,Nate Sylakhom,Fort Worth Boswell,54.7,124.74,68.04,163.29,356.07,Single-ply,SBD,M
Boys,55.79,10,Blayze Ferguson,Frisco Heritage,55.34,127.01,92.99,133.81,353.8,Single-ply,SBD,M
Boys,55.79,DQ,Daniel Herron,Frisco Heritage,55.79,,,,,Single-ply,SBD,M
Boys,55.79,NS,Jacob Garcia,Keller Central,,,,,,Single-ply,SBD,M
Boys,55.79,NS,Arian Queriman,White Settlement Brewer,,,,,,Single-ply,SBD,M
Boys,59.87,1,Edgar Aguirre,Everman,59.87,215.46,106.59,181.44,503.49,Single-ply,SBD,M
Boys,59.87,2,Tajohn Livingston,South Garland,59.15,181.44,74.84,210.92,467.2,Single-ply,SBD,M
Boys,59.87,3,Logan Combs,Royse City,58.97,167.83,102.06,179.17,449.06,Single-ply,SBD,M
Boys,59.87,4,Kevin Weiss,Plano,59.15,158.76,111.13,176.9,446.79,Single-ply,SBD,M
Boys,59.87,5,Ernest Edwards,Cedar Hill,59.69,176.9,90.72,165.56,433.18,Single-ply,SBD,M
Boys,59.87,6,Jose Peraza,Carrollton Smith,59.33,154.22,95.25,176.9,426.38,Single-ply,SBD,M
Boys,59.87,7,Kollin Moss,Royse City,58.69,176.9,86.18,156.49,419.57,Single-ply,SBD,M
Boys,59.87,8,Anthony Phimmasone,Fort Worth Boswell,57.79,161.03,97.52,158.76,417.3,Single-ply,SBD,M
Boys,59.87,9,John Tran,Carrollton Creekview,57.52,151.95,88.45,174.63,415.04,Single-ply,SBD,M
Boys,59.87,10,Will Nickols,Dallas Jesuit,59.15,156.49,92.99,151.95,401.43,Single-ply,SBD,M
Boys,59.87,11,Kyle Amos,Royse City,59.69,156.49,77.11,163.29,396.89,Single-ply,SBD,M
Boys,59.87,12,Hunter Martin #2,Azle,58.51,149.69,95.25,149.69,394.63,Single-ply,SBD,M
Boys,59.87,DQ,Jackson Greer,Mansfield Legacy,58.24,156.49,97.52,,,Single-ply,SBD,M
Boys,67.13,1,Danny Sobrepena,Mansfield Lake Ridge,66.32,224.53,108.86,231.33,564.72,Single-ply,SBD,M
Boys,67.13,2,Luke Kirkbride,Denison,64.5,215.46,113.4,215.46,544.31,Single-ply,SBD,M
Boys,67.13,3,Kylen Hart,Weatherford,65.95,206.38,115.67,204.12,526.17,Single-ply,SBD,M
Boys,67.13,4,Camron Gray,Carrollton Creekview,67.04,215.46,104.33,206.38,526.17,Single-ply,SBD,M
Boys,67.13,5,Jackson Haines,Prosper,65.77,192.78,131.54,192.78,517.1,Single-ply,SBD,M
Boys,67.13,6,Cartez Joseph,Mansfield Summit,66.68,199.58,131.54,185.97,517.1,Single-ply,SBD,M
Boys,67.13,7,Jordan Hogg,Frisco Lebanon Trail,65.86,197.31,117.93,197.31,512.56,Single-ply,SBD,M
Boys,67.13,8,David Thompson,Carrollton Creekview,67.04,185.97,122.47,201.85,510.29,Single-ply,SBD,M
Boys,67.13,9,Nakoa Rios,Keller,67.13,204.12,102.06,204.12,510.29,Single-ply,SBD,M
Boys,67.13,10,Cameron Robbins,Keller Central,66.32,201.85,99.79,190.51,492.15,Single-ply,SBD,M
Boys,67.13,11,Mariano Arriaga,Aledo,66.86,195.04,104.33,188.24,487.61,Single-ply,SBD,M
Boys,67.13,12,Dane Dorris,Azle,66.22,204.12,102.06,163.29,469.47,Single-ply,SBD,M
Boys,67.13,DQ,Jameson Donahue,Frisco Reedy,65.14,199.58,,,,Single-ply,SBD,M
Boys,74.84,1,Antony Nixon,Everman,74.12,226.8,124.74,256.28,607.81,Single-ply,SBD,M
Boys,74.84,2,Isai Pena,Carrollton Creekview,73.3,233.6,136.08,235.87,605.55,Single-ply,SBD,M
Boys,74.84,3,Noah Smith,Saginaw,73.94,213.19,127.01,226.8,566.99,Single-ply,SBD,M
Boys,74.84,4,Draven Myles,Cedar Hill,72.21,219.99,127.01,217.72,564.72,Single-ply,SBD,M
Boys,74.84,5,Micah Justice,Sherman,74.84,208.65,129.27,217.72,555.65,Single-ply,SBD,M
Boys,74.84,6,Cody Hunter,Sherman,69.94,172.37,122.47,210.92,505.76,Single-ply,SBD,M
Boys,74.84,7,Isaiah Dominguez,Fort Worth Boswell,73.75,188.24,115.67,192.78,496.68,Single-ply,SBD,M
Boys,74.84,8,Daniel Delgado,South Garland,74.84,183.7,115.67,190.51,489.88,Single-ply,SBD,M
Boys,74.84,9,Diego Cortez,Everman,74.84,204.12,99.79,170.1,474,Single-ply,SBD,M
Boys,74.84,NS,Sam Carlson,Frisco Reedy,,,,,,Single-ply,SBD,M
Boys,74.84,NS,Justin Smith #25,Frisco Centennial,,,,,,Single-ply,SBD,M
Boys,74.84,NS,Connor Boyd,Keller,,,,,,Single-ply,SBD,M
Boys,74.84,NS,Tatum Price #1,Aledo,,,,,,Single-ply,SBD,M
Boys,74.84,NS,Calvion Porter,Mansfield Summit,,,,,,Single-ply,SBD,M
Boys,82.1,1,Colton David,Keller Central,81.56,242.67,147.42,235.87,625.96,Single-ply,SBD,M
Boys,82.1,2,Curtis Sanders,Cedar Hill,81.47,233.6,151.95,233.6,619.15,Single-ply,SBD,M
Boys,82.1,3,Xavier Tolliver,Mansfield Summit,81.65,247.21,129.27,235.87,612.35,Single-ply,SBD,M
Boys,82.1,4,Kufre Upkong,Mansfield Summit,82.01,238.14,124.74,235.87,598.74,Single-ply,SBD,M
Boys,82.1,5,Tyrone Pettiford,North Crowley,76.48,226.8,111.13,249.48,587.4,Single-ply,SBD,M
Boys,82.1,6,Tanner Knox,Weatherford,80.74,208.65,149.69,229.06,587.4,Single-ply,SBD,M
Boys,82.1,7,Marshall Sampley,Azle,81.01,217.72,124.74,235.87,578.33,Single-ply,SBD,M
Boys,82.1,8,Abjose Robles,Everman,80.56,238.14,111.13,226.8,576.06,Single-ply,SBD,M
Boys,82.1,9,Hung Tran,Carrollton Creekview,81.92,226.8,127.01,208.65,562.45,Single-ply,SBD,M
Boys,82.1,10,Aidan Murrey,Royse City,81.28,210.92,117.93,219.99,548.85,Single-ply,SBD,M
Boys,82.1,11,Thatcher Davis,Royse City,79.47,192.78,127.01,210.92,530.7,Single-ply,SBD,M
Boys,82.1,NS,Antwon Ross,Frisco Heritage,,,,,,Single-ply,SBD,M
Boys,82.1,DQ,Steven Jackson,Cedar Hill,79.83,238.14,127.01,,,Single-ply,SBD,M
Boys,89.81,1,Ethan Herron,Weatherford,89.63,276.69,154.22,249.48,680.39,Single-ply,SBD,M
Boys,89.81,2,Joshua Mork,Fort Worth Boswell,88.45,240.4,163.29,231.33,635.03,Single-ply,SBD,M
Boys,89.81,3,Ethan Jones,Keller,89.45,242.67,142.88,229.06,614.62,Single-ply,SBD,M
Boys,89.81,4,Landon Sleeper,Keller Central,89.54,247.21,149.69,217.72,614.62,Single-ply,SBD,M
Boys,89.81,5,Ki'John Lowery,Cedar Hill,89.36,251.74,138.35,219.99,610.08,Single-ply,SBD,M
Boys,89.81,6,Edgar Guzman,Everman,88.63,256.28,124.74,215.46,596.47,Single-ply,SBD,M
Boys,89.81,7,Carlos Hernandez,Saginaw,87.72,226.8,127.01,229.06,582.87,Single-ply,SBD,M
Boys,89.81,8,Blake Holloway,Mesquite Poteet,86.82,208.65,136.08,231.33,576.06,Single-ply,SBD,M
Boys,89.81,9,Xander Womack,Princeton,89.09,215.46,176.9,183.7,576.06,Single-ply,SBD,M
Boys,89.81,10,Cheyenne Ayers,Hurst Bell,88.99,215.46,131.54,213.19,560.19,Single-ply,SBD,M
Boys,89.81,11,Dailyn Fuller,Cedar Hill,88.36,213.19,138.35,199.58,551.11,Single-ply,SBD,M
Boys,89.81,DQ,Garrett Smith,Royse City,88.09,219.99,122.47,,,Single-ply,SBD,M
Boys,89.81,DQ,Clay Robinson,Mansfield Legacy,82.92,,,,,Single-ply,SBD,M
Boys,99.79,1,Malyk Newsome,Everman,98.52,324.32,158.76,272.16,755.23,Single-ply,SBD,M
Boys,99.79,2,Sean Payne,Keller,99.52,294.84,170.1,238.14,703.07,Single-ply,SBD,M
Boys,99.79,3,Christian Hernandez,Cedar Hill,98.16,265.35,154.22,244.94,664.51,Single-ply,SBD,M
Boys,99.79,4,Tristen Myers,Carrollton Creekview,98.79,226.8,210.92,226.8,664.51,Single-ply,SBD,M
Boys,99.79,5,Kasey Wilson,Rockwall-Heath,95.16,263.08,147.42,247.21,657.71,Single-ply,SBD,M
Boys,99.79,6,Hudson Halbert,Frisco Reedy,96.98,260.82,161.03,235.87,657.71,Single-ply,SBD,M
Boys,99.79,7,Adam Woods,Fort Worth Polytechnic,99.16,260.82,147.42,249.48,657.71,Single-ply,SBD,M
Boys,99.79,8,Jaymathen Cooper,Cedar Hill,98.25,254.01,147.42,226.8,628.23,Single-ply,SBD,M
Boys,99.79,9,Cade McGuffin,Keller Central,98.61,251.74,145.15,226.8,623.69,Single-ply,SBD,M
Boys,99.79,10,Zeke Baker,Weatherford,97.16,226.8,170.1,217.72,614.62,Single-ply,SBD,M
Boys,99.79,11,Jack Hutton,Richardson Lake Highlands,98.34,233.6,142.88,226.8,603.28,Single-ply,SBD,M
Boys,99.79,12,LaDavien Darden,Northwest Eaton,92.53,222.26,124.74,226.8,573.79,Single-ply,SBD,M
Boys,99.79,NS,Durga Kaveti,Frisco Independence,,,,,,Single-ply,SBD,M
Boys,109.77,1,Jimmy Tran,Wichita Falls,105.32,317.51,158.76,254.01,730.28,Single-ply,SBD,M
Boys,109.77,2,Brock Prengler,Lucas Lovejoy,107.32,272.16,158.76,256.28,687.19,Single-ply,SBD,M
Boys,109.77,3,Leon Young,Cedar Hill,108.23,283.5,151.95,244.94,680.39,Single-ply,SBD,M
Boys,109.77,4,Clay Patterson #2,Frisco Reedy,108.77,263.08,158.76,258.55,680.39,Single-ply,SBD,M
Boys,109.77,5,Keondre Vassar,Fort Worth Boswell,103.42,260.82,163.29,244.94,669.05,Single-ply,SBD,M
Boys,109.77,6,Drew Williams,Denison,107.41,274.42,174.63,217.72,666.78,Single-ply,SBD,M
Boys,109.77,7,Eddie Veal,Everman,101.97,272.16,149.69,226.8,648.64,Single-ply,SBD,M
Boys,109.77,8,Angel Esquivel #2,Weatherford,109.04,247.21,181.44,219.99,648.64,Single-ply,SBD,M
Boys,109.77,9,Will Harbour,Frisco Reedy,105.23,254.01,163.29,226.8,644.1,Single-ply,SBD,M
Boys,109.77,10,Makkedah Brown,Wichita Falls,104.78,249.48,136.08,240.4,625.96,Single-ply,SBD,M
Boys,109.77,11,Cameron Rose,Frisco Heritage,106.96,249.48,136.08,226.8,612.35,Single-ply,SBD,M
Boys,109.77,NS,Kiere Ward,Garland Naaman Forest,,,,,,Single-ply,SBD,M
Boys,124.74,1,Jamie Cortez,Royse City,115.03,349.27,172.37,278.96,800.59,Single-ply,SBD,M
Boys,124.74,2,Willie Tutt,Everman,123.47,349.27,154.22,272.16,775.64,Single-ply,SBD,M
Boys,124.74,3,Rashawn Johnson,Hurst Bell,121.74,285.76,161.03,258.55,705.34,Single-ply,SBD,M
Boys,124.74,4,Adrian Alcantara,Keller Central,123.74,290.3,170.1,242.67,703.07,Single-ply,SBD,M
Boys,124.74,5,Cayde Taylor,Weatherford,121.56,258.55,188.24,235.87,682.66,Single-ply,SBD,M
Boys,124.74,6,Jalan Henderson,Everman,124.1,249.48,161.03,256.28,666.78,Single-ply,SBD,M
Boys,124.74,7,Jose Conejo,Denison,113.4,283.5,149.69,208.65,641.83,Single-ply,SBD,M
Boys,124.74,8,Brent Self,Northwest Nelson,118.57,256.28,138.35,240.4,635.03,Single-ply,SBD,M
Boys,124.74,9,Alex Trejo,Saginaw,116.48,219.99,158.76,242.67,621.42,Single-ply,SBD,M
Boys,124.74,10,Kyle Brooks,Denison,119.39,249.48,140.61,226.8,616.89,Single-ply,SBD,M
Boys,124.74,NS,Dayven Monroe,Lancaster,,,,,,Single-ply,SBD,M
Boys,124.74,DQ,Isaac Vielma,White Settlement Brewer,119.48,254.01,142.88,,,Single-ply,SBD,M
Boys,124.74,DQ,Willie Henderson,Mesquite Poteet,114.85,249.48,142.88,,,Single-ply,SBD,M
Boys,124.74,DQ,Brandon Tran,Hurst Bell,124.74,285.76,154.22,,,Single-ply,SBD,M
Boys,124.74+,1,Izeya Floyd,Frisco Reedy,153.86,365.14,192.78,283.5,841.41,Single-ply,SBD,M
Boys,124.74+,2,Talwinder Singh,North Crowley,143.52,303.91,210.92,288.03,802.86,Single-ply,SBD,M
Boys,124.74+,3,Marc Johnson,Crowley,167.47,319.78,192.78,240.4,752.96,Single-ply,SBD,M
Boys,124.74+,4,Joshua Gilliam,Mansfield Timberview,139.34,317.51,181.44,244.94,743.89,Single-ply,SBD,M
Boys,124.74+,5,Andrew Zamora,Rockwall-Heath,142.43,310.71,176.9,238.14,725.75,Single-ply,SBD,M
Boys,124.74+,6,Jaden Webb,Royse City,132,283.5,154.22,251.74,689.46,Single-ply,SBD,M
Boys,124.74+,7,Cooper Moorman,Azle,143.52,260.82,167.83,249.48,678.12,Single-ply,SBD,M
Boys,124.74+,8,Tekarius Walton,Sherman,140.7,247.21,165.56,254.01,666.78,Single-ply,SBD,M
Boys,124.74+,9,Gabe Collins,Rockwall-Heath,152.32,283.5,129.27,235.87,648.64,Single-ply,SBD,M
Boys,124.74+,10,Marcus Sanchez,South Garland,133.36,283.5,154.22,199.58,637.3,Single-ply,SBD,M
Boys,124.74+,11,Zac Haynes,Aledo,124.83,272.16,147.42,204.12,623.69,Single-ply,SBD,M
Boys,124.74+,DQ,Jackson Skelton,Northwest Eaton,127.01,254.01,,,,Single-ply,SBD,M
Boys,124.74+,DQ,Bill Overton,Denton Guyer,137.08,,,,,Single-ply,SBD,M
