Place,Sex,Name,CyrillicName,BodyweightKg,Deadlift1Kg,Deadlift2Kg,Deadlift3Kg,Best3DeadliftKg,Deadlift4Kg,TotalKg,WeightClassKg,Event,Equipment,Tested,Bench1Kg,Bench2Kg,Bench3Kg,Best3BenchKg,Bench4Kg,Division,Age,BirthDate
1,M,Pavel Zubkov,Павел Зубков,81.7,275,290,-300,290,,290,82.5,D,Raw,No,,,,,,Pro Open,33,1985-12-22
1,M,Dmitriy Maleev,Дмитрий Малеев,89.9,262.5,275,-280,275,,275,90,D,Raw,No,,,,,,Pro Open,29,1990-02-07
1,M,Aleksey Sizov,Алексей Сизов,98.3,280,295,305,305,,305,100,D,Raw,No,,,,,,Pro Open,39,1979-12-11
1,M,Oleg Vinogradov,Олег Виноградов,102.1,320,335,-340,335,,335,110,D,Raw,No,,,,,,Pro Open,28,1990-06-09
1,F,Alina Bocharnikova,Алина Бочарникова,46.8,95,-110,110,110,,110,48,D,Raw,Yes,,,,,,Amateur Open,36,1983-02-28
DQ,F,Olga Brik,Ольга Брик,59.9,-112.5,-112.5,-112.5,,,,60,D,Raw,Yes,,,,,,Amateur Open,31,1987-12-25
1,M,Vyacheslav Proshchalykin,Вячеслав Прощалыкин,81.3,165,180,187.5,187.5,,187.5,82.5,D,Raw,Yes,,,,,,Amateur Teen 14-15,15,2003-03-26
1,M,Vitaliy Shulgin,Виталий Шульгин,76.8,155,165,172.5,172.5,,172.5,82.5,D,Raw,Yes,,,,,,Amateur Open,21,1997-09-22
DQ,M,Elnur Aliev,Эльнур Алиев,81.5,-200,-200,-200,,,,82.5,D,Raw,Yes,,,,,,Amateur Open,37,1982-03-09
1,M,Anton Bengardt,Антон Бенгардт,88.7,210,-220,-220,210,,210,90,D,Raw,Yes,,,,,,Amateur Open,29,1990-01-15
DQ,M,Leonid Desov,Леонид Десов,85,-215,-225,-225,,,,90,D,Raw,Yes,,,,,,Amateur Open,25,1993-04-02
1,M,Arsen Akopyan,Арсен Акопян,88.8,205,215,-225,215,,215,90,D,Raw,Yes,,,,,,Amateur Masters 45-49,48,1970-06-23
1,M,Sergey Permyakov,Сергей Пермяков,107.4,270,285,-295,285,,285,110,D,Raw,Yes,,,,,,Amateur Open,33,1985-12-19
1,M,Igor Proshchalykin,Игорь Прощалыкин,108.8,220,232.5,242.5,242.5,,242.5,110,D,Raw,Yes,,,,,,Amateur Masters 40-44,43,1975-03-26
DQ,M,Roman Belyaev,Роман Беляев,105.5,-255,-255,,,,,110,D,Raw,Yes,,,,,,Amateur Masters 40-44,43,1976-01-22
1,F,Elena Prokopova,Елена Прокопова,66.7,,,,,,170,67.5,B,Multi-ply,No,-157.5,157.5,170,170,,Pro Open,53,1966-03-07
1,F,Elena Prokopova,Елена Прокопова,66.7,,,,,,170,67.5,B,Multi-ply,No,-157.5,157.5,170,170,,Pro Masters 50-54,53,1966-03-07
1,M,Konstantin Zhigulin,Константин Жигулин,80.2,,,,,,210,82.5,B,Multi-ply,No,210,-230,-240,210,,Pro Open,31,1987-10-03
1,M,Dmitriy Vasilenko,Дмитрий Василенко,107.2,,,,,,320,110,B,Multi-ply,No,300,320,-342.5,320,,Pro Masters 40-44,43,1975-06-03
1,M,Nikolay Emelyanov,Николай Емельянов,121.5,,,,,,380,125,B,Multi-ply,No,362.5,380,,380,,Pro Open,39,1979-08-30
1,F,Elena Doroshina,Елена Дорошина,55.6,,,,,,82.5,56,B,Multi-ply,Yes,77.5,82.5,-85,82.5,,Amateur Masters 40-44,43,1975-06-01
1,F,Anna Ermolaeva,Анна Ермолаева,67.2,,,,,,105,67.5,B,Multi-ply,Yes,105,-115,-115,105,,Amateur Masters 40-44,43,1975-04-27
1,M,Ilya Varshavskiy,Илья Варшавский,74.8,,,,,,282.5,75,B,Multi-ply,Yes,265,275,282.5,282.5,,Amateur Open,27,1991-11-03
1,M,Kirill Sukharev,Кирилл Сухарев,98.5,,,,,,255,100,B,Multi-ply,Yes,240,255,-275,255,,Amateur Open,25,1993-12-21
2,M,Vasiliy Korchinskiy,Василий Корчинский,99.9,,,,,,250,100,B,Multi-ply,Yes,240,250,-267.5,250,,Amateur Open,37,1981-07-26
3,M,Stanislav Shcheslavskiy,Станислав Щеславский,97,,,,,,232.5,100,B,Multi-ply,Yes,220,232.5,-240,232.5,,Amateur Open,37,1981-04-15
1,M,Andrey Sukharev,Андрей Сухарев,103.5,,,,,,300,110,B,Multi-ply,Yes,285,300,-342.5,300,,Amateur Open,44,1974-07-22
1,F,Nika Velial,Ника Велиал,59.2,,,,,,90,60,B,Raw,No,85,90,-95,90,,Pro Open,26,1992-11-25
1,M,Kirill Ingi,Кирилл Инги,89.3,,,,,,170,90,B,Raw,No,155,162.5,170,170,,Pro Open,32,1986-10-01
1,M,Sergey Luzin,Сергей Лузин,87.5,,,,,,130,90,B,Raw,No,115,125,130,130,,Pro Masters 60-64,64,1954-04-30
1,M,Aleksey Sizov,Алексей Сизов,98.3,,,,,,205,100,B,Raw,No,190,205,-215,205,,Pro Open,39,1979-12-11
1,M,Sergey Vedenidov,Сергей Веденидов,115.5,,,,,,200,125,B,Raw,No,185,195,200,200,,Pro Open,39,1979-09-23
1,F,Mariya Koretskaya,Мария Корецкая,64.3,,,,,,92.5,67.5,B,Raw,Yes,85,90,92.5,92.5,,Amateur Open,37,1981-10-11
1,F,Svetlana Shikhanova,Светлана Шиханова,66.3,,,,,,62.5,67.5,B,Raw,Yes,57.5,60,62.5,62.5,,Amateur Masters 40-44,43,1975-10-22
1,M,Sergey Tarasov,Сергей Тарасов,82,,,,,,145,82.5,B,Raw,Yes,130,145,-150,145,,Amateur Open,35,1983-09-07
1,M,Dmitriy Kasatov,Дмитрий Касатов,86.5,,,,,,210,90,B,Raw,Yes,190,200,210,210,-215,Amateur Open,41,1977-05-22
2,M,Aleksey Taldykin,Алексей Талдыкин,87.6,,,,,,155,90,B,Raw,Yes,145,155,,155,,Amateur Open,28,1990-09-23
3,M,Leonid Desov,Леонид Десов,85,,,,,,150,90,B,Raw,Yes,130,140,150,150,,Amateur Open,25,1993-04-02
4,M,Georgiy Timokhin,Георгий Тимохин,89.2,,,,,,130,90,B,Raw,Yes,-130,130,-135,130,,Amateur Open,26,1993-01-29
1,M,Sergey Luzin,Сергей Лузин,87.5,,,,,,130,90,B,Raw,Yes,115,125,130,130,,Amateur Masters 60-64,64,1954-04-30
1,M,Aleksandr Popkov,Александр Попков,95,,,,,,120,100,B,Raw,Yes,120,-125,-125,120,,Amateur Masters 45-49,45,1973-05-13
1,M,Andrey Zaykin,Андрей Зайкин,107.8,,,,,,185,110,B,Raw,Yes,175,-185,185,185,,Amateur Open,35,1984-01-21
1,M,Aleksandr Loginov,Александр Логинов,108.3,,,,,,160,110,B,Raw,Yes,160,-167.5,-167.5,160,,Amateur Masters 50-54,50,1969-02-16
1,M,Vladimir Seleznev,Владимир Селезнев,124.9,,,,,,187.5,125,B,Raw,Yes,175,182.5,187.5,187.5,,Amateur Masters 40-44,41,1977-05-09
1,M,Nikolay Fadeev,Николай Фадеев,115,,,,,,175,125,B,Raw,Yes,162.5,170,175,175,,Amateur Masters 40-44,41,1977-07-11
