Name,WeightClassKg,Division,AgeRange,Sex,Best3SquatKg,Best3BenchKg,Best3DeadliftKg,TotalKg,Event,Equipment,Place
Diana Roscoe,67.5,NV,,F,,40.82,81.65,122.47,BD,Raw,1
Caleb,75,NV,,M,,56.7,113.4,170.1,BD,Raw,1
Caleb,75,P/F/M,,M,,56.7,113.4,170.1,BD,Raw,1
Nathan Litowsky,52,11-12,11-12,M,,56.7,92.99,149.69,BD,Single-ply,1
Mario Bowers,82.5,SM,35-39,M,,147.42,226.8,374.21,BD,Raw,1
Archello,82.5,O,,M,,151.95,,,BD,Multi-ply,DQ
Archello,82.5,LT,,M,,151.95,,,BD,Multi-ply,DQ
Dan Caffrey,100,LT,,M,,142.88,226.8,369.68,BD,Raw,1
Reichin,110,O,,M,,185.97,235.87,421.84,BD,Multi-ply,1
Diana Roscoe,67.5,NV,,F,81.65,40.82,81.65,204.12,SBD,Single-ply,1
Maria Spano,67.5,50-54,50-54,F,97.52,61.24,158.76,317.52,SBD,Wraps,1
Maria Spano,67.5,O,,F,97.52,61.24,158.76,317.52,SBD,Wraps,1
Rich Ullman,52,LT,,M,113.4,81.65,136.08,331.12,SBD,Single-ply,1
Nathan Litowsky,52,11-12,11-12,M,81.65,56.7,92.99,231.33,SBD,Single-ply,1
Andre Ferreira,67.5,JR,20-23,M,147.42,127.01,165.56,439.99,SBD,Wraps,1
Martin Rooney,75,LT,,M,158.76,120.2,192.78,471.74,SBD,Wraps,1
Martin Rooney,75,O,,M,158.76,120.2,192.78,471.74,SBD,Wraps,1
Martin Rooney,75,40-44,40-44,M,158.76,120.2,192.78,471.74,SBD,Wraps,1
Zimmerman,82.5,LT,,M,156.49,165.56,190.51,512.56,SBD,Multi-ply,1
Phillips,82.5,O,,M,163.29,122.47,,,SBD,Wraps,DQ
Cinelli,82.5,55-59,55-59,M,104.33,95.25,136.08,335.66,SBD,Wraps,1
Cooper,82.5,17-19,17-19,M,147.42,124.74,195.04,467.2,SBD,Wraps,1
Piompino,90,13-16,13-16,M,158.76,138.35,165.56,462.66,SBD,Wraps,1
Lang,90,17-19,17-19,M,238.14,120.2,226.8,585.13,SBD,Wraps,1
John Gaglione,90,17-19,17-19,M,170.1,102.06,210.92,483.08,SBD,Wraps,1
Jon Rock,90,O,,M,183.71,183.71,183.71,551.12,SBD,Single-ply,1
Ellinger,90,40-44,40-44,M,215.46,151.95,226.8,594.21,SBD,Wraps,1
Williams,90,50-54,50-54,M,217.72,156.49,231.33,605.55,SBD,Single-ply,1
Perez #2,90,SM,35-39,M,204.12,154.22,215.46,573.8,SBD,Single-ply,2
Seunarine,90,SM,35-39,M,254.01,151.95,249.48,655.44,SBD,Single-ply,1
Dan Caffrey,100,LT,,M,195.04,142.88,226.8,564.72,SBD,Wraps,1
Harris,100,55-59,55-59,M,129.27,147.42,147.42,424.11,SBD,Multi-ply,1
John Znaczko,100,45-49,45-49,M,163.29,20.41,163.29,347,SBD,Multi-ply,1
Dan LoBue,110,JR,20-23,M,272.16,158.76,244.94,675.85,SBD,Wraps,1
Jeff Deigan,110,LT,,M,276.69,181.44,290.3,748.43,SBD,Wraps,1
Steve Adzima,125,O,,M,154.22,120.2,183.71,458.13,SBD,Single-ply,1
Steve Adzima,125,SM,35-39,M,154.22,120.2,183.71,458.13,SBD,Single-ply,1
Steve Adzima,125,P/F/M,,M,154.22,120.2,183.71,458.13,SBD,Single-ply,1
Pete Gisondi,125,45-49,45-49,M,233.6,174.63,297.1,705.34,SBD,Multi-ply,1
Knapp,36.29,11-12,11-12,M,,31.75,,31.75,B,Raw,1
Tim McDowell,56,JR,20-23,M,,72.57,,72.57,B,Raw,1
Andre Ferreira,67.5,JR,20-23,M,,127.01,,127.01,B,Raw,1
Knapp,75,11-12,11-12,M,,45.36,,45.36,B,Raw,1
Burns,75,O,,M,,161.03,,161.03,B,Raw,1
Joe Alongi,82.5,O,,M,,181.44,,181.44,B,Single-ply,1
Chris LiVolsi,82.5,SM,35-39,M,,147.42,,147.42,B,Single-ply,1
Chris LiVolsi,82.5,P/F/M,,M,,147.42,,147.42,B,Single-ply,1
John Kampo,82.5,SM,,M,,183.71,,183.71,B,Multi-ply,1
J. Caliguri,82.5,40-44,40-44,M,,181.44,,181.44,B,Multi-ply,1
Stan Freed,82.5,65-69,65-69,M,,140.61,,140.61,B,Raw,1
Snouffer,90,JR,20-23,M,,147.42,,147.42,B,Raw,1
Cliff McDowell,90,JR,20-23,M,,124.74,,124.74,B,Raw,2
Willis McCoy,90,O,,M,,165.56,,165.56,B,Raw,1
Seunarine,90,SM,35-39,M,,151.95,,151.95,B,Multi-ply,1
Freeman,90,NV,,M,,99.79,,99.79,B,Multi-ply,1
Rolls,90,P/F/M,,M,,140.61,,140.61,B,Raw,1
Carr,90,45-49,45-49,M,,136.08,,136.08,B,Raw,1
Jenkins,90,NV,,M,,142.88,,142.88,B,Raw,1
Klazas,100,40-44,40-44,M,,222.26,,222.26,B,Single-ply,1
Nick Maltezos,110,LT,,M,,183.71,,183.71,B,Raw,1
Nick Maltezos,110,O,,M,,183.71,,183.71,B,Raw,1
Troy Lehrer,110,O,,M,,242.67,,242.67,B,Single-ply,1
Troy Lehrer,110,SM,35-39,M,,242.67,,242.67,B,Single-ply,1
Glen Haley,110,40-44,40-44,M,,219.99,,219.99,B,Single-ply,1
Glen Haley,110,LT,,M,,219.99,,219.99,B,Single-ply,1
Inglisa,110,40-44,40-44,M,,136.08,,136.08,B,Raw,1
Wylie,110,55-59,55-59,M,,145.15,,145.15,B,Raw,1
Ramos,136.08,LT,,M,,204.12,,204.12,B,Raw,1
Ramos,136.08,O,,M,,204.12,,204.12,B,Raw,1
Dupont,136.08,LT,,M,,,,,B,Multi-ply,DQ
Dupont,136.08,45-49,45-49,M,,,,,B,Multi-ply,DQ
Maria Spano,67.5,O,,F,,,158.76,158.76,D,Raw,1
Mario Bowers Jr,36.29,9-10,9-10,M,,,34.02,34.02,D,Raw,1
Knapp,36.29,11-12,11-12,M,,,43.09,43.09,D,Raw,1
Andre Ferreira,67.5,JR,20-23,M,,,165.56,165.56,D,Raw,1
Knapp,75,11-12,11-12,M,,,97.52,97.52,D,Raw,1
Badurek,75,O,,M,,,219.99,219.99,D,Multi-ply,1
Badurek,75,SM,35-39,M,,,219.99,219.99,D,Multi-ply,1
Wacker,82.5,55-59,55-59,M,,,140.61,140.61,D,Raw,1
Seunarine,90,SM,35-39,M,,,249.48,249.48,D,Multi-ply,1
Crespo,90,NV,,M,,,224.53,224.53,D,Raw,1
Hashemiyoon,90,NV,,M,,,215.46,215.46,D,Raw,2
Freeman,90,NV,,M,,,183.71,183.71,D,Raw,3
Rich Sadiv,90,40-44,40-44,M,,,308.44,308.44,D,Single-ply,1
Burke,100,JR,20-23,M,,,288.03,288.03,D,Raw,1
Johnson,100,SM,35-39,M,,,240.4,240.4,D,Raw,1
Chet Slaybaugh,100,40-44,45-49,M,,,283.5,283.5,D,Multi-ply,1
Lopez,100,45-49,45-49,M,,,288.03,288.03,D,Multi-ply,1
Lopez,100,P/F/M,,M,,,288.03,288.03,D,Multi-ply,1
Jim Dusenbury,110,60-64,60-64,M,,,231.33,231.33,D,Multi-ply,1
Andre Ferreira,67.5,JR,20-23,M,147.42,,,147.42,S,Wraps,1
Seunarine,90,SM,35-39,M,254.01,,,254.01,S,Multi-ply,1
Johnson,100,SM,35-39,M,204.12,,,204.12,S,Wraps,1
Nick Maltezos,110,LT,,M,272.16,,,272.16,S,Wraps,1
Nick Maltezos,110,O,,M,272.16,,,272.16,S,Wraps,1
Kiefer,125,LT,,M,,,,,S,Multi-ply,DQ
