Division,WeightClassKg,Place,Name,Team,BodyweightKg,Best3SquatKg,Best3BenchKg,Best3DeadliftKg,TotalKg,Equipment,Event,Sex
Girls,44.23,1,Lourdes Jaimes,Bonham,44,120.2,45.36,111.13,276.69,Single-ply,SBD,F
Girls,44.23,2,Jordan Miller #1,Anna,43.73,99.79,45.36,99.79,244.94,Single-ply,SBD,F
Girls,44.23,3,Ashley Fink,Little Elm,43.09,97.52,54.43,83.91,235.87,Single-ply,SBD,F
Girls,44.23,4,Rosario Labrada,Whitesboro,43.64,86.18,47.63,77.11,210.92,Single-ply,SBD,F
Girls,44.23,5,Logan Vance,Bells,43.73,74.84,43.09,88.45,206.38,Single-ply,SBD,F
Girls,44.23,6,Sabrina Cummings,Little Elm,40.28,79.38,36.29,68.04,183.7,Single-ply,SBD,F
Girls,44.23,7,Stephanie Bermudez,Denison,43.54,70.31,36.29,77.11,183.7,Single-ply,SBD,F
Girls,44.23,8,Erica Ortega,Valley View,42.46,65.77,31.75,70.31,167.83,Single-ply,SBD,F
Girls,44.23,9,Heather Murphy,Whitewright,39.28,61.23,34.02,68.04,163.29,Single-ply,SBD,F
Girls,44.23,10,Emily Davis,Lindsay,41.46,61.23,31.75,61.23,154.22,Single-ply,SBD,F
Girls,47.85,1,Michelle Moore,Collinsville,47.45,90.72,45.36,113.4,249.48,Single-ply,SBD,F
Girls,47.85,2,Chloe Roberts,Whitesboro,46.63,92.99,47.63,97.52,238.14,Single-ply,SBD,F
Girls,47.85,3,Rhiannon Spaulding,Farmersville,47.63,90.72,47.63,97.52,235.87,Single-ply,SBD,F
Girls,47.85,4,Julie Rushing,Whitewright,47.81,86.18,49.9,92.99,229.06,Single-ply,SBD,F
Girls,47.85,5,Molly Chhor,Little Elm,45.72,86.18,38.56,102.06,226.8,Single-ply,SBD,F
Girls,47.85,6,Brittany Cundiff,Anna,46.9,95.25,38.56,88.45,222.26,Single-ply,SBD,F
Girls,47.85,7,Raven Huff,Denison,46.08,70.31,43.09,104.33,217.72,Single-ply,SBD,F
Girls,47.85,8,Keeley Jurca,Blue Ridge,46.72,79.38,45.36,92.99,217.72,Single-ply,SBD,F
Girls,47.85,9,Rachel Greve,Van Alstyne,47.81,86.18,34.02,97.52,217.72,Single-ply,SBD,F
Girls,47.85,10,Rebekah Roberts,Anna,46.81,79.38,43.09,72.57,195.04,Single-ply,SBD,F
Girls,47.85,11,Natalie Alcala,Lindsay,47.26,74.84,29.48,83.91,188.24,Single-ply,SBD,F
Girls,47.85,12,Malee Vitayapanna,Farmersville,46.18,65.77,31.75,86.18,183.7,Single-ply,SBD,F
Girls,47.85,13,Hannah Jacoby,Valley View,45.81,70.31,34.02,70.31,174.63,Single-ply,SBD,F
Girls,47.85,14,Kirsten Dennison,Lindsay,45.54,54.43,34.02,72.57,161.03,Single-ply,SBD,F
Girls,47.85,15,Jacky Duran,Farmersville,44.27,65.77,29.48,61.23,156.49,Single-ply,SBD,F
Girls,47.85,16,Sydnee Addington,Farmersville,44.91,56.7,29.48,61.23,147.42,Single-ply,SBD,F
Girls,47.85,17,Cheyenne DeLeon,Lindsay,46.45,54.43,24.95,63.5,142.88,Single-ply,SBD,F
Girls,47.85,18,Madysen Addington,Farmersville,47.36,38.56,24.95,61.23,124.74,Single-ply,SBD,F
Girls,47.85,19,Katelyn Bridger,Callisburg,45.81,,36.29,70.31,106.59,Single-ply,BD,F
Girls,51.94,1,Shelbie Rhodes,Little Elm,50.71,108.86,49.9,122.47,281.23,Single-ply,SBD,F
Girls,51.94,2,Kandycee Walker,Bonham,49.99,113.4,45.36,115.67,274.42,Single-ply,SBD,F
Girls,51.94,3,Destiny Strain,Leonard,50.98,99.79,49.9,111.13,260.82,Single-ply,SBD,F
Girls,51.94,4,Ravyn Wagoner,Denison,51.89,92.99,52.16,111.13,256.28,Single-ply,SBD,F
Girls,51.94,5,Shay Kotulek,Leonard,51.35,99.79,54.43,92.99,247.21,Single-ply,SBD,F
Girls,51.94,6,Makensey Woodson,Sadler S & S Cons,51.17,90.72,47.63,99.79,238.14,Single-ply,SBD,F
Girls,51.94,7,Katlyn Armstrong,Callisburg,51.44,102.06,43.09,88.45,233.6,Single-ply,SBD,F
Girls,51.94,8,Autumn Spaeth,Anna,51.35,86.18,54.43,86.18,226.8,Single-ply,SBD,F
Girls,51.94,9,Brooke Hodge,Anna,51.62,86.18,47.63,90.72,224.53,Single-ply,SBD,F
Girls,51.94,10,Piper Winsett,Little Elm,50.35,90.72,45.36,86.18,222.26,Single-ply,SBD,F
Girls,51.94,11,Caitlin Weaver,Van Alstyne,51.35,86.18,40.82,86.18,213.19,Single-ply,SBD,F
Girls,51.94,12,Sophia Lansford,Tom Bean,51.71,88.45,27.22,95.25,210.92,Single-ply,SBD,F
Girls,51.94,13,Edith Fisher,Royse City,50.98,79.38,40.82,79.38,199.58,Single-ply,SBD,F
Girls,51.94,14,Destiny Herrera,Blue Ridge,50.71,70.31,36.29,88.45,195.04,Single-ply,SBD,F
Girls,51.94,15,Taylor Ortega,Valley View,48.17,70.31,27.22,74.84,172.37,Single-ply,SBD,F
Girls,51.94,16,Hannah Metzler,Lindsay,48.17,63.5,29.48,74.84,167.83,Single-ply,SBD,F
Girls,51.94,DQ,Sarah Prindle,Denison,51.89,77.11,34.02,,,Single-ply,SBD,F
Girls,51.94,DQ,Cortney Leonard,Gainesville,50.8,,,,,Single-ply,SBD,F
Girls,51.94,DQ,Taylor Royal,Gainesville,51.35,,,,,Single-ply,SBD,F
Girls,56.02,1,Erica Helms,Leonard,55.52,127.01,52.16,127.01,306.17,Single-ply,SBD,F
Girls,56.02,2,Izzi Fielder,Little Elm,55.88,111.13,56.7,117.93,285.76,Single-ply,SBD,F
Girls,56.02,3,Halley Ihrig,Sanger,55.97,102.06,47.63,127.01,276.69,Single-ply,SBD,F
Girls,56.02,4,Natasha Goforth,Pottsboro,54.43,115.67,52.16,104.33,272.16,Single-ply,SBD,F
Girls,56.02,5,Erin Plemmons,Denison,54.52,90.72,56.7,111.13,258.55,Single-ply,SBD,F
Girls,56.02,6,Precious Holley,Denison,55.43,97.52,52.16,108.86,258.55,Single-ply,SBD,F
Girls,56.02,7,Amy Trimble,Little Elm,52.53,108.86,49.9,90.72,249.48,Single-ply,SBD,F
Girls,56.02,8,Ashlynn Rhoades,Aubrey,55.16,97.52,45.36,106.59,249.48,Single-ply,SBD,F
Girls,56.02,9,Kylie Roach,Pottsboro,55.7,90.72,43.09,108.86,242.67,Single-ply,SBD,F
Girls,56.02,10,Hailee Medler,Pottsboro,54.88,102.06,47.63,88.45,238.14,Single-ply,SBD,F
Girls,56.02,11,Carissa Campbell,Leonard,52.16,90.72,40.82,95.25,226.8,Single-ply,SBD,F
Girls,56.02,12,Tori Murphy,Leonard,53.71,86.18,43.09,95.25,224.53,Single-ply,SBD,F
Girls,56.02,13,Baylee Lawdermille,Collinsville,55.43,81.65,47.63,95.25,224.53,Single-ply,SBD,F
Girls,56.02,14,Brooke Stewart,Aubrey,54.98,83.91,43.09,90.72,217.72,Single-ply,SBD,F
Girls,56.02,15,Alex Robinson #2,Gunter,55.16,83.91,45.36,88.45,217.72,Single-ply,SBD,F
Girls,56.02,16,Rachel Ormsby,Aubrey,55.88,81.65,40.82,88.45,210.92,Single-ply,SBD,F
Girls,56.02,17,Lauren Frey,Van Alstyne,54.43,74.84,43.09,86.18,204.12,Single-ply,SBD,F
Girls,56.02,18,Kirklyn Bedwell,Van Alstyne,54.52,79.38,38.56,79.38,197.31,Single-ply,SBD,F
Girls,56.02,19,Kate Vaught,Bonham,55.07,72.57,36.29,86.18,195.04,Single-ply,SBD,F
Girls,56.02,20,Trystan Schirt,Whitewright,53.89,65.77,29.48,74.84,170.1,Single-ply,SBD,F
Girls,56.02,DQ,Sarah Scott,Anna,55.34,117.93,,,,Single-ply,SBD,F
Girls,56.02,DQ,Kaitlyn Agee,Royse City,54.16,,,,,Single-ply,SBD,F
Girls,60.1,1,Brianna Cole,Melissa,59.69,136.08,70.31,145.15,351.53,Single-ply,SBD,F
Girls,60.1,2,Jamie Williams #1,Royse City,57.33,122.47,58.97,131.54,312.98,Single-ply,SBD,F
Girls,60.1,3,Alyssa Hill,Bonham,58.42,124.74,56.7,124.74,306.17,Single-ply,SBD,F
Girls,60.1,4,Chloe Houston,Van Alstyne,56.06,102.06,54.43,142.88,299.37,Single-ply,SBD,F
Girls,60.1,5,Makinzie Gentry,Leonard,59.1,106.59,61.23,120.2,288.03,Single-ply,SBD,F
Girls,60.1,6,Kennedy Balzen,Melissa,57.52,111.13,56.7,115.67,283.5,Single-ply,SBD,F
Girls,60.1,7,Madisyn Betancer,Little Elm,56.7,90.72,61.23,120.2,272.16,Single-ply,SBD,F
Girls,60.1,8,Natalie Koenig,Anna,56.97,99.79,49.9,122.47,272.16,Single-ply,SBD,F
Girls,60.1,9,Abbie Timm,Callisburg,60.06,111.13,49.9,106.59,267.62,Single-ply,SBD,F
Girls,60.1,10,Jewel Vinson,Sanger,59.33,95.25,49.9,115.67,260.82,Single-ply,SBD,F
Girls,60.1,11,Taylor Osborne #1,Pottsboro,58.51,97.52,52.16,108.86,258.55,Single-ply,SBD,F
Girls,60.1,12,Maddy Middleton,Sanger,56.7,102.06,52.16,97.52,251.74,Single-ply,SBD,F
Girls,60.1,13,Stefani Alvarado,Whitesboro,56.61,99.79,45.36,102.06,247.21,Single-ply,SBD,F
Girls,60.1,14,Baylee McEwen,Gunter,57.33,88.45,52.16,102.06,242.67,Single-ply,SBD,F
Girls,60.1,15,Yareli Garcia,Pottsboro,57.33,88.45,38.56,97.52,224.53,Single-ply,SBD,F
Girls,60.1,16,Shara Chumley,Sadler S & S Cons,59.69,79.38,31.75,97.52,208.65,Single-ply,SBD,F
Girls,60.1,17,Amanda Suto-Colon,Aubrey,57.06,65.77,45.36,86.18,197.31,Single-ply,SBD,F
Girls,60.1,18,Taylor Blakeslee,Blue Ridge,56.97,74.84,38.56,79.38,192.78,Single-ply,SBD,F
Girls,60.1,19,Hana Koiner,Krum,57.97,70.31,29.48,86.18,185.97,Single-ply,SBD,F
Girls,60.1,20,Jaicey Pruett,Gainesville,58.33,81.65,36.29,65.77,183.7,Single-ply,SBD,F
Girls,60.1,21,Olivia Jones,Gainesville,58.88,70.31,31.75,70.31,172.37,Single-ply,SBD,F
Girls,60.1,22,Jenna Sutherland,Valley View,58.69,,38.56,83.91,122.47,Single-ply,BD,F
Girls,60.1,DQ,Ashley Short,Pottsboro,59.51,,,,,Single-ply,SBD,F
Girls,67.36,1,Kaylin Miller,Whitesboro,66.77,147.42,88.45,156.49,392.36,Single-ply,SBD,F
Girls,67.36,2,Jessica Steinhoff,Aubrey,65.5,131.54,70.31,145.15,347,Single-ply,SBD,F
Girls,67.36,3,Hannah Skinner,Little Elm,65.86,129.27,79.38,131.54,340.19,Single-ply,SBD,F
Girls,67.36,4,Dreanna McAdams,Howe,66.04,129.27,63.5,140.61,333.39,Single-ply,SBD,F
Girls,67.36,5,MyKiyah Whitfield,Little Elm,66.68,129.27,61.23,133.81,324.32,Single-ply,SBD,F
Girls,67.36,6,Maddie Dills,Bonham,66.95,129.27,52.16,129.27,310.71,Single-ply,SBD,F
Girls,67.36,7,Micayla Porter,Aubrey,66.32,113.4,47.63,131.54,292.57,Single-ply,SBD,F
Girls,67.36,8,Jada Davis,Aubrey,64.05,102.06,56.7,124.74,283.5,Single-ply,SBD,F
Girls,67.36,9,Madison Heskett,Valley View,63.19,108.86,49.9,106.59,265.35,Single-ply,SBD,F
Girls,67.36,10,Hannah Hacker,Sanger,66.41,106.59,38.56,120.2,265.35,Single-ply,SBD,F
Girls,67.36,11,Courtney Spence,Bells,67.13,102.06,52.16,111.13,265.35,Single-ply,SBD,F
Girls,67.36,12,Rachel Bellamy,Van Alstyne,66.22,106.59,52.16,104.33,263.08,Single-ply,SBD,F
Girls,67.36,13,Brittany Collinsworth,Valley View,61.23,102.06,52.16,102.06,256.28,Single-ply,SBD,F
Girls,67.36,14,Stephanie Simpson,Bells,67.22,86.18,45.36,99.79,231.33,Single-ply,SBD,F
Girls,67.36,15,Michelle Popovich,Melissa,62.69,81.65,47.63,99.79,229.06,Single-ply,SBD,F
Girls,67.36,16,Kennedy Schulz,Valley View,66.04,90.72,45.36,90.72,226.8,Single-ply,SBD,F
Girls,67.36,17,Starla Harrell,Celeste,63.96,86.18,52.16,86.18,224.53,Single-ply,SBD,F
Girls,67.36,18,Kira Dela Fuente,Farmersville,60.51,72.57,38.56,86.18,197.31,Single-ply,SBD,F
Girls,67.36,19,Baylee Stautzenberger,Tom Bean,63.23,38.56,29.48,92.99,161.03,Single-ply,SBD,F
Girls,67.36,DQ,Rebecca Eugster,Callisburg,65.86,142.88,61.23,,,Single-ply,SBD,F
Girls,67.36,DQ,Tristyn Gilcrease,Krum,63.32,68.04,29.48,79.38,,Single-ply,SBD,F
Girls,75.07,1,Vail Springer,Anna,73.75,140.61,113.4,131.54,385.55,Single-ply,SBD,F
Girls,75.07,2,Kailey Jones,Denison,73.94,145.15,72.57,151.95,369.68,Single-ply,SBD,F
Girls,75.07,3,Jaydan Hunt,Denison,73.66,138.35,81.65,142.88,362.87,Single-ply,SBD,F
Girls,75.07,4,Macy Davis,Anna,73.66,115.67,77.11,127.01,319.78,Single-ply,SBD,F
Girls,75.07,5,Carlee Gearinger,Pottsboro,70.76,117.93,68.04,115.67,301.64,Single-ply,SBD,F
Girls,75.07,6,Kenly Parker,Celina,71.03,129.27,61.23,102.06,292.57,Single-ply,SBD,F
Girls,75.07,7,Destiny Thompson,Whitesboro,69.76,111.13,56.7,117.93,285.76,Single-ply,SBD,F
Girls,75.07,8,Kaitlyn Vallot,Aubrey,69.04,111.13,49.9,122.47,283.5,Single-ply,SBD,F
Girls,75.07,9,Karen Smith,Leonard,73.3,117.93,58.97,106.59,283.5,Single-ply,SBD,F
Girls,75.07,10,Cassie Harder,Pottsboro,70.94,104.33,56.7,117.93,278.96,Single-ply,SBD,F
Girls,75.07,11,Kailee Worthey,Celina,69.76,102.06,49.9,111.13,263.08,Single-ply,SBD,F
Girls,75.07,12,Alli Koch,Leonard,72.3,95.25,61.23,102.06,258.55,Single-ply,SBD,F
Girls,75.07,13,Brenda Gomez,Sanger,75.02,97.52,45.36,113.4,256.28,Single-ply,SBD,F
Girls,75.07,14,Kalli Smith,Sanger,69.67,86.18,54.43,106.59,247.21,Single-ply,SBD,F
Girls,75.07,15,Kaleigh Cochran,Whitesboro,69.04,86.18,47.63,99.79,233.6,Single-ply,SBD,F
Girls,75.07,16,Karla Castaneda,Gainesville,68.86,86.18,36.29,97.52,219.99,Single-ply,SBD,F
Girls,75.07,17,Kaitlyn Rimpel,Van Alstyne,68.13,74.84,43.09,99.79,217.72,Single-ply,SBD,F
Girls,75.07,18,Gabrielle Scott,Celina,72.03,79.38,45.36,88.45,213.19,Single-ply,SBD,F
Girls,75.07,19,Ashley Linn,Sadler S & S Cons,73.12,77.11,38.56,92.99,208.65,Single-ply,SBD,F
Girls,75.07,20,McKenna Smith,Gunter,70.67,68.04,43.09,72.57,183.7,Single-ply,SBD,F
Girls,75.07,21,Mya Stradley,Gainesville,71.12,61.23,34.02,65.77,161.03,Single-ply,SBD,F
Girls,75.07,22,Karli Kuhn,Gainesville,71.4,61.23,24.95,68.04,154.22,Single-ply,SBD,F
Girls,75.07,23,Melanie Steward,Sadler S & S Cons,70.4,,43.09,95.25,138.35,Single-ply,BD,F
Girls,75.07,24,Hannah Valles,Royse City,69.31,,31.75,86.18,117.93,Single-ply,BD,F
Girls,75.07,DQ,Rachel Salters,Bells,69.76,99.79,,,,Single-ply,SBD,F
Girls,82.33,1,Mikayla Morris,Whitesboro,79.02,154.22,90.72,172.37,417.3,Single-ply,SBD,F
Girls,82.33,2,Kaylen Jowitt,Whitesboro,76.75,131.54,70.31,133.81,335.66,Single-ply,SBD,F
Girls,82.33,3,Gwen Tyson,Van Alstyne,77.11,124.74,63.5,104.33,292.57,Single-ply,SBD,F
Girls,82.33,4,Grace Miller,Little Elm,75.21,102.06,65.77,111.13,278.96,Single-ply,SBD,F
Girls,82.33,5,Piper Welch,Krum,76.57,92.99,47.63,117.93,258.55,Single-ply,SBD,F
Girls,82.33,6,Natalia Cox,Melissa,77.38,113.4,45.36,95.25,254.01,Single-ply,SBD,F
Girls,82.33,7,Guadalupe Rodnguez,Gainesville,81.1,86.18,45.36,108.86,240.4,Single-ply,SBD,F
Girls,82.33,8,Rachael Housewright,Aubrey,80.29,79.38,43.09,108.86,231.33,Single-ply,SBD,F
Girls,82.33,9,Karina Revilla,Royse City,80.29,81.65,40.82,86.18,208.65,Single-ply,SBD,F
Girls,82.33,10,Rebecca Still,Callisburg,76.57,79.38,43.09,83.91,206.38,Single-ply,SBD,F
Girls,82.33,11,Bree Dalton,Celeste,80.74,79.38,40.82,77.11,197.31,Single-ply,SBD,F
Girls,82.33,12,Lauren Nichols,Bells,80.29,,29.48,83.91,113.4,Single-ply,BD,F
Girls,90.04,1,Hailee Anderson,Anna,84.64,165.56,83.91,167.83,417.3,Single-ply,SBD,F
Girls,90.04,2,McKenzie Crossland,Leonard,86.09,149.69,77.11,142.88,369.68,Single-ply,SBD,F
Girls,90.04,3,Clarissa Rios,Sanger,84.82,142.88,70.31,140.61,353.8,Single-ply,SBD,F
Girls,90.04,4,Bailee Glenn,Van Alstyne,85.28,129.27,72.57,138.35,340.19,Single-ply,SBD,F
Girls,90.04,5,Alyssa Allen,Van Alstyne,86.36,115.67,56.7,142.88,315.25,Single-ply,SBD,F
Girls,90.04,6,Cami Cunningham,Tom Bean,85.28,102.06,40.82,117.93,260.82,Single-ply,SBD,F
Girls,90.04,7,Morgan Moore,Valley View,88.99,83.91,43.09,99.79,226.8,Single-ply,SBD,F
Girls,90.04,8,Katln Poindexter,Bells,88.63,72.57,40.82,90.72,204.12,Single-ply,SBD,F
Girls,100.02,1,Priscilla Adejokun,Melissa,94.35,215.46,88.45,206.38,510.29,Single-ply,SBD,F
Girls,100.02,2,Makenzie Smith,Collinsville,93.62,151.95,70.31,170.1,392.36,Single-ply,SBD,F
Girls,100.02,3,Macie Volcik,Pottsboro,92.71,124.74,77.11,131.54,333.39,Single-ply,SBD,F
Girls,100.02,4,Chelsi Riley,Leonard,99.43,113.4,61.23,136.08,310.71,Single-ply,SBD,F
Girls,100.02,5,Alyssa Young,Sanger,91.63,99.79,49.9,117.93,267.62,Single-ply,SBD,F
Girls,100.02,6,Katie Gailley,Royse City,96.8,106.59,43.09,115.67,265.35,Single-ply,SBD,F
Girls,100.02,7,Kassie Tuley,Pottsboro,98.88,97.52,56.7,106.59,260.82,Single-ply,SBD,F
Girls,100.02,8,Jaclyn Rodgers,Tom Bean,92.99,81.65,52.16,124.74,258.55,Single-ply,SBD,F
Girls,100.02,9,Savanna Henington,Denison,95.16,77.11,61.23,106.59,244.94,Single-ply,SBD,F
Girls,100.02,10,Baileigh Massey,Bells,92.26,81.65,45.36,113.4,240.4,Single-ply,SBD,F
Girls,100.02,11,Julie Barnes,Van Alstyne,91.72,92.99,40.82,102.06,235.87,Single-ply,SBD,F
Girls,100.02,12,Abby Farrer,Tom Bean,95.07,65.77,38.56,113.4,217.72,Single-ply,SBD,F
Girls,100.02,13,Kenadie Schmith,Gainesville,91.53,,56.7,102.06,158.76,Single-ply,BD,F
Girls,100.02+,1,Tess Hickey,Sanger,120.93,183.7,108.86,158.76,451.32,Single-ply,SBD,F
Girls,100.02+,2,Tori Scott,Gainesville,137.17,170.1,72.57,154.22,396.89,Single-ply,SBD,F
Girls,100.02+,3,Leslie Quijada,Royse City,105.69,165.56,79.38,145.15,390.09,Single-ply,SBD,F
Girls,100.02+,4,Haylee McAdoo,Whitesboro,124.65,158.76,90.72,136.08,385.55,Single-ply,SBD,F
Girls,100.02+,5,Sabrina Chambliss,Celeste,108.14,131.54,79.38,138.35,349.27,Single-ply,SBD,F
Girls,100.02+,6,Alexis Bolin,Leonard,106.96,120.2,74.84,142.88,337.93,Single-ply,SBD,F
Girls,100.02+,7,Ashley Enriquez-Castro,Anna,121.83,127.01,65.77,117.93,310.71,Single-ply,SBD,F
Girls,100.02+,8,Lindsey Cain,Whitesboro,129.09,90.72,90.72,120.2,301.64,Single-ply,SBD,F
Girls,100.02+,9,Sara Godfrey,Pottsboro,113.31,104.33,58.97,122.47,285.76,Single-ply,SBD,F
Girls,100.02+,10,Haley Lewis,Farmersville,101.88,102.06,52.16,122.47,276.69,Single-ply,SBD,F
