Division,WeightClassKg,Place,Name,Team,BodyweightKg,Best3SquatKg,Best3BenchKg,Best3DeadliftKg,TotalKg,Equipment,Event,Sex
Boys,51.71,1,Peter Padilla,Seminole,50.26,124.74,74.84,158.76,358.34,Single-ply,SBD,M
Boys,51.71,2,Evan Paez,Muleshoe,51.71,124.74,68.04,149.69,342.46,Single-ply,SBD,M
Boys,55.79,3,Gage Rigdon,Meadow,51.89,99.79,58.97,142.88,301.64,Single-ply,SBD,M
Boys,51.71,4,Randy Jones,Seminole,50.17,113.4,52.16,113.4,278.96,Single-ply,SBD,M
Boys,51.71,5,Keyvan Constantino,Whiteface,50.53,81.65,61.23,122.47,265.35,Single-ply,SBD,M
Boys,51.71,6,Justin Guffey,Seminole,50.62,70.31,47.63,90.72,208.65,Single-ply,SBD,M
Boys,55.79,1,Arturo Rodriguez,Meadow,55.34,142.88,83.91,158.76,385.55,Single-ply,SBD,M
Boys,55.79,2,Manuel Reyna,Anton,55.16,106.59,58.97,129.27,294.84,Single-ply,SBD,M
Boys,55.79,3,Brady Henry,Whiteface,55.34,97.52,65.77,97.52,260.82,Single-ply,SBD,M
Boys,55.79,4,Jaime Mendoza,Whiteface,55.79,90.72,52.16,99.79,242.67,Single-ply,SBD,M
Boys,59.87,1,Johnny Hernandez,Sundown,59.06,172.37,83.91,172.37,428.64,Single-ply,SBD,M
Boys,59.87,2,Adrian Perez,Meadow,59.87,129.27,74.84,163.29,367.41,Single-ply,SBD,M
Boys,67.13,3,Miguel Vasquez,Farwell,59.96,140.61,83.91,131.54,356.07,Single-ply,SBD,M
Boys,59.87,4,Isaiah Marquez,Seminole,59.6,113.4,74.84,138.35,326.59,Single-ply,SBD,M
Boys,59.87,5,Bryan Fuentes,Kermit,59.06,117.93,72.57,122.47,312.98,Single-ply,SBD,M
Boys,59.87,6,Rafael Castillo,Whiteface,59.87,113.4,56.7,111.13,281.23,Single-ply,SBD,M
Boys,74.84,1,Eli Rodriguez,Seagraves,67.22,222.26,115.67,215.46,553.38,Single-ply,SBD,M
Boys,67.13,2,Abel Burciaga,Denver City,63.87,151.95,122.47,165.56,439.98,Single-ply,SBD,M
Boys,67.13,3,Steven Anna,Plains,67.13,140.61,86.18,158.76,385.55,Single-ply,SBD,M
Boys,67.13,4,Ransom Edwards,Seminole,64.32,147.42,72.57,149.69,369.68,Single-ply,SBD,M
Boys,67.13,5,Angel Rodríguez #6,Meadow,63.5,129.27,79.38,149.69,358.34,Single-ply,SBD,M
Boys,67.13,6,Joshua Trevino,Kermit,65.86,133.81,72.57,140.61,347,Single-ply,SBD,M
Boys,67.13,7,Ivan Valverde,Denver City,67.13,122.47,74.84,147.42,344.73,Single-ply,SBD,M
Boys,67.13,8,Isaac Harper,Seagraves,65.23,117.93,72.57,145.15,335.66,Single-ply,SBD,M
Boys,67.13,9,Taylor Hobbs,Denver City,65.5,113.4,74.84,136.08,324.32,Single-ply,SBD,M
Boys,67.13,10,Ethan Pendergrass,Anton,60.42,111.13,65.77,140.61,317.51,Single-ply,SBD,M
Boys,67.13,11,Matt Conder,Levelland,63.59,61.23,58.97,142.88,263.08,Single-ply,SBD,M
Boys,67.13,DQ,Peyton Ledbetter,Farwell,66.95,,,,,Single-ply,SBD,M
Boys,74.84,1,Andrew Alvidrez,Seminole,67.49,254.01,154.22,260.82,669.05,Single-ply,SBD,M
Boys,74.84,2,Fabian Honesto,Whiteface,74.75,190.51,102.06,190.51,483.08,Single-ply,SBD,M
Boys,74.84,3,Dillon Hibbitts,Seagraves,73.03,151.95,95.25,167.83,415.04,Single-ply,SBD,M
Boys,74.84,4,Jerry Simental,Seagraves,72.57,136.08,92.99,165.56,394.63,Single-ply,SBD,M
Boys,74.84,5,Scout Powers,Seminole,73.75,136.08,83.91,158.76,378.75,Single-ply,SBD,M
Boys,74.84,6,Quade Hunt,Kermit,67.86,108.86,68.04,142.88,319.78,Single-ply,SBD,M
Boys,74.84,7,Grant Smith,Levelland,67.86,99.79,54.43,106.59,260.82,Single-ply,SBD,M
Boys,82.1,1,Cesar Dominguez,Denver City,80.56,179.17,113.4,192.78,485.34,Single-ply,SBD,M
Boys,82.1,2,Carlos Hinojosa,Lamesa,80.56,181.44,102.06,188.24,471.74,Single-ply,SBD,M
Boys,82.1,3,Brandon Pereyra,Plains,77.38,158.76,113.4,172.37,444.52,Single-ply,SBD,M
Boys,82.1,4,Carlos Hernandez,Muleshoe,80.01,179.17,72.57,185.97,437.72,Single-ply,SBD,M
Boys,89.81,5,Cesar Olvera,Muleshoe,82.19,154.22,97.52,183.7,435.45,Single-ply,SBD,M
Boys,82.1,6,Omar Soto,Farwell,80.83,149.69,99.79,183.7,433.18,Single-ply,SBD,M
Boys,82.1,7,Sean Hernendez,Anton,81.1,154.22,81.65,163.29,399.16,Single-ply,SBD,M
Boys,82.1,8,Eyrik Ellison,Anton,80.29,142.88,81.65,172.37,396.89,Single-ply,SBD,M
Boys,82.1,9,Jesse Flores,Levelland,77.47,138.35,102.06,154.22,394.63,Single-ply,SBD,M
Boys,82.1,10,Cameron McQueen,Meadow,78.65,142.88,90.72,154.22,387.82,Single-ply,SBD,M
Boys,82.1,DQ,Fernando Vasquez,Denver City,77.02,,,,,Single-ply,SBD,M
Boys,89.81,1,Eduardo Hernandez,Denver City,85.91,226.8,147.42,188.24,562.45,Single-ply,SBD,M
Boys,89.81,2,Dalton Gray,Anton,88.45,217.72,117.93,206.38,542.04,Single-ply,SBD,M
Boys,99.79,3,Larry Iglesias,Lamesa,89.9,192.78,120.2,195.04,508.02,Single-ply,SBD,M
Boys,89.81,4,Meshach Mendoza,Levelland,87.63,190.51,117.93,197.31,505.76,Single-ply,SBD,M
Boys,99.79,5,Cruz Soliz,Levelland,89.99,156.49,102.06,158.76,417.3,Single-ply,SBD,M
Boys,89.81,6,Manuel Ramirez,Kermit,86.45,145.15,86.18,156.49,387.82,Single-ply,SBD,M
Boys,89.81,7,Michael Marquez,Levelland,83.73,149.69,90.72,145.15,385.55,Single-ply,SBD,M
Boys,99.79,8,Tano Castillo,Whiteface,89.9,147.42,81.65,147.42,376.48,Single-ply,SBD,M
Boys,89.81,9,Anthony Romo,Kermit,85.09,142.88,81.65,142.88,367.41,Single-ply,SBD,M
Boys,89.81,10,Pj Bordayo,Whiteface,85.28,117.93,81.65,136.08,335.66,Single-ply,SBD,M
Boys,89.81,11,Armando Ramos,Levelland,86.36,104.33,77.11,138.35,319.78,Single-ply,SBD,M
Boys,99.79,1,Arnulfo Leyva,Kermit,94.53,192.78,113.4,199.58,505.76,Single-ply,SBD,M
Boys,99.79,2,Matthew Leyva,Kermit,95.16,197.31,92.99,183.7,474,Single-ply,SBD,M
Boys,99.79,3,Jessie Villarreal,Lamesa,92.17,176.9,113.4,174.63,464.93,Single-ply,SBD,M
Boys,99.79,4,Jason Torres,Levelland,96.52,124.74,90.72,183.7,399.16,Single-ply,SBD,M
Boys,99.79,5,Isaiah Lira,Plains,91.63,140.61,86.18,165.56,392.36,Single-ply,SBD,M
Boys,99.79,6,Hector Pando,Plains,90.17,142.88,97.52,136.08,376.48,Single-ply,SBD,M
Boys,109.77,1,Moses Rodriguez,Lamesa,100.7,190.51,124.74,165.56,480.81,Single-ply,SBD,M
Boys,109.77,2,Alex Lozano,Denver City,104.05,124.74,83.91,158.76,367.41,Single-ply,SBD,M
Boys,109.77,3,Marc Ramirez,Kermit,107.32,113.4,70.31,120.2,303.91,Single-ply,SBD,M
Boys,124.74,1,David Rodriguez,Muleshoe,115.48,265.35,145.15,215.46,625.96,Single-ply,SBD,M
Boys,124.74,2,Israel Rosalez,Seagraves,115.21,238.14,163.29,183.7,585.13,Single-ply,SBD,M
Boys,124.74,3,Keith Kalbas,Farwell,120.84,192.78,120.2,197.31,510.29,Single-ply,SBD,M
Boys,124.74,4,Chris Barron,Lamesa,115.21,185.97,131.54,190.51,508.02,Single-ply,SBD,M
Boys,124.74,5,Justin Perez,Farwell,124.56,165.56,122.47,176.9,464.93,Single-ply,SBD,M
Boys,124.74,6,Johhny Fehr,Seminole,118.39,161.03,92.99,154.22,408.23,Single-ply,SBD,M
Boys,124.74,7,Ruben Tijerina,Levelland,111.13,120.2,72.57,151.95,344.73,Single-ply,SBD,M
Boys,124.74+,1,Manuel Martinez,Levelland,128.73,170.1,113.4,206.38,489.88,Single-ply,SBD,M
Boys,124.74+,2,Gabe Lopez,Levelland,129.36,145.15,102.06,183.7,430.91,Single-ply,SBD,M
Boys,124.74+,3,Zathan McIntosh,Kermit,137.26,161.03,97.52,149.69,408.23,Single-ply,SBD,M
Boys,124.74+,4,Jesse Hernandez,Lamesa,135.9,127.01,117.93,151.95,396.89,Single-ply,SBD,M
