Division,WeightClassKg,Place,Name,Team,BodyweightKg,Best3SquatKg,Best3BenchKg,Best3DeadliftKg,TotalKg,Equipment,Event,Sex
Boys,55.79,1,Alex Wright #3,Killeen Harker Heights,51.89,138.35,95.25,156.49,390.09,Single-ply,SBD,M
Boys,51.71,2,William Park,Center Point,50.98,117.93,56.7,120.2,294.84,Single-ply,SBD,M
Boys,51.71,3,Trey Fuller,Jarrell,47.81,111.13,58.97,115.67,285.76,Single-ply,SBD,M
Boys,51.71,4,Josh Ramirez,Kyle Lehman,51.07,104.33,61.23,120.2,285.76,Single-ply,SBD,M
Boys,51.71,DQ,Chris Ramariez,Lampasas,51.53,,,,,Single-ply,SBD,M
Boys,51.71,6,Michael Pavia,San Marcos,46.9,77.11,54.43,102.06,233.6,Single-ply,SBD,M
Boys,51.71,7,Joe Ray,Austin Bowie,46.45,68.04,52.16,90.72,210.92,Single-ply,SBD,M
Boys,59.87,1,Marcus Manley,Del Valle,55.88,188.24,92.99,176.9,458.13,Single-ply,SBD,M
Boys,55.79,2,Mario Leos,Seguin,55.16,151.95,104.33,188.24,444.52,Single-ply,SBD,M
Boys,55.79,3,Forrest Warren,Georgetown,54.88,147.42,70.31,154.22,371.95,Single-ply,SBD,M
Boys,55.79,4,Jeremy Gamel,Pflugerville Hendrickson,55.79,115.67,65.77,149.69,331.12,Single-ply,SBD,M
Boys,59.87,5,Kevion Harris,Pflugerville Connally,55.97,122.47,68.04,140.61,331.12,Single-ply,SBD,M
Boys,59.87,6,Brandon Negus,Taylor,55.97,113.4,65.77,142.88,322.05,Single-ply,SBD,M
Boys,55.79,7,Esidro Arce,Lampasas,55.25,115.67,68.04,136.08,319.78,Single-ply,SBD,M
Boys,55.79,8,Barney Natavidad,Del Valle,55.7,104.33,68.04,136.08,308.44,Single-ply,SBD,M
Boys,55.79,9,Ty Smith,Dripping Springs,53.8,104.33,61.23,140.61,306.17,Single-ply,SBD,M
Boys,55.79,10,Jarmarquis Degrate,Waco University,53.98,104.33,65.77,122.47,292.57,Single-ply,SBD,M
Boys,59.87,1,Jealious Ordinallo,Pflugerville Connally,59.78,149.69,104.33,188.24,442.25,Single-ply,SBD,M
Boys,59.87,2,Jacob Torres,Kyle Lehman,59.15,145.15,106.59,181.44,433.18,Single-ply,SBD,M
Boys,59.87,3,Daniel Beltran,Jarrell,59.87,142.88,104.33,167.83,415.04,Single-ply,SBD,M
Boys,59.87,4,Brandon Scott #4,Kyle Lehman,59.6,147.42,88.45,176.9,412.77,Single-ply,SBD,M
Boys,59.87,5,Brandon Alford,Kyle Lehman,56.7,147.42,81.65,,229.06,Single-ply,SB,M
Boys,59.87,6,Matt Maldonado,Del Valle,59.51,138.35,81.65,167.83,387.82,Single-ply,SBD,M
Boys,59.87,7,Calvin Guillory,Round Rock McNeil,59.87,149.69,74.84,161.03,385.55,Single-ply,SBD,M
Boys,59.87,8,Cameron Baird,Kyle Lehman,58.97,149.69,74.84,151.95,376.48,Single-ply,SBD,M
Boys,59.87,9,Jordan Murphy,Austin Lake Travis,59.42,142.88,74.84,122.47,340.19,Single-ply,SBD,M
Boys,67.13,1,Kristian Cogdill,San Marcos,65.95,217.72,122.47,195.04,535.24,Single-ply,SBD,M
Boys,67.13,2,Jc Carpenter,Seguin,66.13,181.44,122.47,213.19,517.1,Single-ply,SBD,M
Boys,67.13,3,Chris May,Waco University,65.32,199.58,106.59,188.24,494.42,Single-ply,SBD,M
Boys,67.13,4,Rick Dominguez,Center Point,66.5,179.17,108.86,181.44,469.47,Single-ply,SBD,M
Boys,74.84,5,Daniel Nieto,San Marcos,67.31,165.56,122.47,176.9,464.93,Single-ply,SBD,M
Boys,67.13,6,Royal Lucas,Taylor,66.04,161.03,97.52,192.78,451.32,Single-ply,SBD,M
Boys,67.13,7,Colin Gills,Dripping Springs,67.04,167.83,102.06,165.56,435.45,Single-ply,SBD,M
Boys,67.13,8,Axel Gomez,Austin Lake Travis,63.68,147.42,104.33,176.9,428.64,Single-ply,SBD,M
Boys,74.84,9,Rodney Ross,Taylor,67.31,165.56,83.91,165.56,415.04,Single-ply,SBD,M
Boys,67.13,10,Richard Smith,Kyle Lehman,64.86,142.88,90.72,179.17,412.77,Single-ply,SBD,M
Boys,67.13,11,Patrick Halsell,Center Point,62.78,172.37,90.72,145.15,408.23,Single-ply,SBD,M
Boys,67.13,12,Stephan Flores,Comfort,66.13,142.88,90.72,158.76,392.36,Single-ply,SBD,M
Boys,67.13,13,DaVonte Lyons,Pflugerville Connally,64.86,136.08,90.72,154.22,381.02,Single-ply,SBD,M
Boys,67.13,14,Ryan Arnolo,Georgetown,63.32,138.35,81.65,147.42,367.41,Single-ply,SBD,M
Boys,67.13,15,Robert Bueno,Georgetown,62.14,136.08,81.65,136.08,353.8,Single-ply,SBD,M
Boys,67.13,16,Kyle Adair,Dripping Springs,66.13,133.81,70.31,142.88,347,Single-ply,SBD,M
Boys,67.13,17,Zane Bertram,Lockhart,66.59,113.4,61.23,113.4,288.03,Single-ply,SBD,M
Boys,74.84,1,John Monreal,Del Valle,74.84,235.87,138.35,222.26,596.47,Single-ply,SBD,M
Boys,74.84,2,Jonas Lanier,Killeen Harker Heights,72.76,213.19,102.06,244.94,560.19,Single-ply,SBD,M
Boys,74.84,3,Jon Frasier,Kyle Lehman,69.22,208.65,136.08,201.85,546.58,Single-ply,SBD,M
Boys,74.84,4,Omar Pereyra,Dripping Springs,73.84,185.97,108.86,188.24,483.08,Single-ply,SBD,M
Boys,74.84,5,Clay Finn,Austin Lake Travis,73.94,181.44,113.4,181.44,476.27,Single-ply,SBD,M
Boys,74.84,6,Dakota Ross,Center Point,69.85,174.63,117.93,181.44,474,Single-ply,SBD,M
Boys,74.84,7,Harley Patterson,Gatesville,70.76,188.24,90.72,190.51,469.47,Single-ply,SBD,M
Boys,82.1,8,Hunter Matlock,Austin Bowie,75.02,170.1,113.4,176.9,460.4,Single-ply,SBD,M
Boys,74.84,9,Jonathan Hernandez,Taylor,74.66,158.76,136.08,154.22,449.06,Single-ply,SBD,M
Boys,74.84,10,VIncent Moraida,Buda Hays,74.66,185.97,106.59,149.69,442.25,Single-ply,SBD,M
Boys,74.84,11,Raul Nava,Georgetown,67.77,149.69,95.25,170.1,415.04,Single-ply,SBD,M
Boys,74.84,12,Aaron Lugo,Austin Bowie,70.22,151.95,104.33,158.76,415.04,Single-ply,SBD,M
Boys,82.1,13,Nathan Thaplsy,Georgetown,75.02,147.42,104.33,158.76,410.5,Single-ply,SBD,M
Boys,74.84,14,Fisher Sutterfield,Austin Bowie,73.94,142.88,92.99,158.76,394.63,Single-ply,SBD,M
Boys,74.84,15,John Horrocks,Buda Hays,74.21,147.42,97.52,142.88,387.82,Single-ply,SBD,M
Boys,74.84,16,Zach Bosque,Comfort,71.49,136.08,90.72,136.08,362.87,Single-ply,SBD,M
Boys,82.1,1,Pablo Nieto,San Marcos,80.1,235.87,136.08,219.99,591.94,Single-ply,SBD,M
Boys,89.81,2,Nii Tagoe,Pflugerville Connally,82.28,226.8,117.93,235.87,580.6,Single-ply,SBD,M
Boys,82.1,3,Edward Hall,Lampasas,81.56,215.46,147.42,201.85,564.72,Single-ply,SBD,M
Boys,89.81,4,Mathew Tirk,Kyle Lehman,82.28,219.99,136.08,192.78,548.85,Single-ply,SBD,M
Boys,82.1,5,Frankie Alvarez,Austin Bowie,80.74,183.7,127.01,224.53,535.24,Single-ply,SBD,M
Boys,82.1,6,Nelson Lugala,Pflugerville Connally,81.1,215.46,102.06,213.19,530.7,Single-ply,SBD,M
Boys,82.1,7,Dillion Brunet,Center Point,78.74,199.58,117.93,204.12,521.63,Single-ply,SBD,M
Boys,82.1,8,Brad Haag,Round Rock McNeil,78.93,165.56,108.86,190.51,464.93,Single-ply,SBD,M
Boys,82.1,9,Stephan Beran,Del Valle,80.74,174.63,106.59,174.63,455.86,Single-ply,SBD,M
Boys,82.1,10,Edbriel Manzo,Buda Hays,79.92,165.56,106.59,181.44,453.59,Single-ply,SBD,M
Boys,82.1,11,Nate Contrell,Comfort,76.2,163.29,113.4,170.1,446.79,Single-ply,SBD,M
Boys,82.1,12,Chris Cerda,Kyle Lehman,78.93,165.56,111.13,158.76,435.45,Single-ply,SBD,M
Boys,89.81,13,Kyle Borrum,Comfort,82.19,163.29,117.93,154.22,435.45,Single-ply,SBD,M
Boys,82.1,14,Tyler James,Buda Hays,80.92,147.42,86.18,176.9,410.5,Single-ply,SBD,M
Boys,82.1,15,Cedric Haley,Pflugerville Connally,81.92,133.81,97.52,165.56,396.89,Single-ply,SBD,M
Boys,82.1,16,Max Mullins,Seguin,80.92,124.74,83.91,185.97,394.63,Single-ply,SBD,M
Boys,89.81,1,Dallas Glass,Elgin,88.81,229.06,147.42,249.48,625.96,Single-ply,SBD,M
Boys,89.81,2,Leo Castro,Elgin,87.45,219.99,149.69,249.48,619.15,Single-ply,SBD,M
Boys,89.81,3,Elijah Brown,Pflugerville Connally,88.27,222.26,124.74,233.6,580.6,Single-ply,SBD,M
Boys,89.81,4,Garrett Perez,Center Point,82.74,204.12,127.01,213.19,544.31,Single-ply,SBD,M
Boys,99.79,5,Alex Bogan,Taylor,89.99,208.65,124.74,201.85,535.24,Single-ply,SBD,M
Boys,89.81,6,Cheez Borneman,Wimberley,84.82,183.7,147.42,195.04,526.17,Single-ply,SBD,M
Boys,89.81,7,Matt Mainiero,Round Rock McNeil,85.37,206.38,106.59,199.58,512.56,Single-ply,SBD,M
Boys,89.81,8,Jesse Baker,Seguin,88.09,192.78,138.35,181.44,512.56,Single-ply,SBD,M
Boys,89.81,9,Zach Foreman,Dripping Springs,87.27,181.44,120.2,192.78,494.42,Single-ply,SBD,M
Boys,89.81,10,Cody Villarreal,San Marcos,88.9,188.24,111.13,188.24,487.61,Single-ply,SBD,M
Boys,89.81,11,Ricky Hernandez,San Marcos,89.09,176.9,111.13,185.97,474,Single-ply,SBD,M
Boys,89.81,12,Matt Grisdale,Pflugerville Connally,84.1,158.76,115.67,192.78,467.2,Single-ply,SBD,M
Boys,89.81,13,Victor Martinez,Buda Hays,88.63,163.29,102.06,156.49,421.84,Single-ply,SBD,M
Boys,89.81,14,Tyler Pippin,Comfort,89.54,156.49,99.79,156.49,412.77,Single-ply,SBD,M
Boys,89.81,15,Ryan Ugwu,Pflugerville,82.64,147.42,97.52,161.03,405.97,Single-ply,SBD,M
Boys,89.81,16,Charlie Mowen,San Marcos,83.64,149.69,95.25,158.76,403.7,Single-ply,SBD,M
Boys,99.79,1,David Garza,Kyle Lehman,95.71,278.96,176.9,249.48,705.34,Single-ply,SBD,M
Boys,99.79,2,Jared Hallman,Round Rock McNeil,97.43,222.26,147.42,281.23,650.91,Single-ply,SBD,M
Boys,99.79,3,Zach Spires,Dripping Springs,99.7,249.48,138.35,219.99,607.81,Single-ply,SBD,M
Boys,99.79,4,Caleb Gardner,Austin Bowie,92.9,224.53,140.61,226.8,591.94,Single-ply,SBD,M
Boys,99.79,5,Randall Jones,Elgin,92.08,215.46,122.47,240.4,578.33,Single-ply,SBD,M
Boys,99.79,6,Miles Dixon,Seguin,92.08,204.12,124.74,240.4,569.26,Single-ply,SBD,M
Boys,99.79,7,Matt Meador,Gatesville,93.8,199.58,129.27,215.46,544.31,Single-ply,SBD,M
Boys,99.79,8,Daniel Ross,Pflugerville,97.98,204.12,129.27,210.92,544.31,Single-ply,SBD,M
Boys,99.79,9,Deaundre Turner,Lockhart,98.7,219.99,113.4,208.65,542.04,Single-ply,SBD,M
Boys,99.79,10,Chris Carpnter,Seguin,93.8,210.92,136.08,183.7,530.7,Single-ply,SBD,M
Boys,99.79,11,Deondre Barrs,Pflugerville,98.43,210.92,124.74,195.04,530.7,Single-ply,SBD,M
Boys,99.79,12,Chief Okarocha,Pflugerville Connally,91.72,181.44,99.79,226.8,508.02,Single-ply,SBD,M
Boys,99.79,13,Wood Updegrove,San Marcos,96.52,170.1,108.86,179.17,458.13,Single-ply,SBD,M
Boys,99.79,14,David Guthrie,Center Point,99.7,192.78,108.86,156.49,458.13,Single-ply,SBD,M
Boys,99.79,15,Leron Hutto,San Marcos,92.08,163.29,102.06,174.63,439.98,Single-ply,SBD,M
Boys,99.79,16,Kyle Connell,Austin Lake Travis,92.53,158.76,111.13,161.03,430.91,Single-ply,SBD,M
Boys,99.79,17,Josh Heink,Georgetown,94.53,142.88,102.06,167.83,412.77,Single-ply,SBD,M
Boys,99.79,DQ,Garrett Hisiman,Georgetown,99.34,,,,,Single-ply,SBD,M
Boys,99.79,DQ,Sam McClain,Georgetown,99.34,,,,,Single-ply,SBD,M
Boys,99.79,DQ,Kyle Williams,Buda Hays,99.34,,,,,Single-ply,SBD,M
Boys,109.77,1,Dayon Denmon,Del Valle,104.78,233.6,120.2,226.8,580.6,Single-ply,SBD,M
Boys,109.77,2,Tyler Mills,Round Rock McNeil,102.33,206.38,108.86,235.87,551.11,Single-ply,SBD,M
Boys,109.77,3,Vincent Martinez,Austin Bowie,108.14,204.12,131.54,206.38,542.04,Single-ply,SBD,M
Boys,109.77,4,Andrew Turnage,Austin Bowie,108.05,204.12,111.13,213.19,528.44,Single-ply,SBD,M
Boys,109.77,5,Ryan Atkinson,Marble Falls,103.78,204.12,136.08,170.1,510.29,Single-ply,SBD,M
Boys,109.77,6,Sam Schlanger,Austin Lake Travis,102.97,183.7,120.2,197.31,501.22,Single-ply,SBD,M
Boys,109.77,7,Lorenzo Martinez,Georgetown,103.42,192.78,115.67,170.1,478.54,Single-ply,SBD,M
Boys,124.74,1,Xavier Mitchell,Waco University,123.65,274.42,174.63,256.28,705.34,Single-ply,SBD,M
Boys,124.74,2,Easton Evans,Waco University,118.84,276.69,158.76,249.48,684.92,Single-ply,SBD,M
Boys,124.74,3,Savon Thomas,Pflugerville,116.57,265.35,156.49,256.28,678.12,Single-ply,SBD,M
Boys,124.74,4,Benson Hlnze,Round Rock McNeil,111.86,226.8,111.13,204.12,542.04,Single-ply,SBD,M
Boys,124.74,5,Zach Dillon,Austin Lake Travis,120.47,151.95,104.33,195.04,451.32,Single-ply,SBD,M
Boys,124.74,6,Hunter Siddens,Austin Lake Travis,115.48,133.81,92.99,181.44,408.23,Single-ply,SBD,M
Boys,124.74+,1,Matt Wilson #3,Austin Bowie,135.17,263.08,142.88,222.26,628.23,Single-ply,SBD,M
Boys,124.74+,2,Alex Fitzgerald,Round Rock,129.64,231.33,163.29,199.58,594.21,Single-ply,SBD,M
Boys,124.74+,3,Jason McVey,Round Rock McNeil,125.83,235.87,113.4,233.6,582.87,Single-ply,SBD,M
Boys,124.74+,4,Ryne Lehman,Lockhart,130.63,170.1,138.35,188.24,496.68,Single-ply,SBD,M
Boys,124.74+,5,Anthony Carchi,Austin Lake Travis,125.65,170.1,127.01,195.04,492.15,Single-ply,SBD,M
Boys,124.74+,6,Dylan Hinojosa,Pflugerville Connally,163.02,149.69,108.86,142.88,401.43,Single-ply,SBD,M
