Division,WeightClassKg,Place,Name,Team,BodyweightKg,Best3SquatKg,Best3BenchKg,Best3DeadliftKg,TotalKg,Equipment,Event,Sex
Boys,55.79,1,Donovan Hayes,Frisco Centennial,51.94,142.88,68.04,136.08,347,Single-ply,SBD,M
Boys,51.71,2,Yamil Acevedo,West Mesquite,50.8,74.84,54.43,102.06,231.33,Single-ply,SBD,M
Boys,51.71,3,Jacob Lopez,Ferris,50.12,72.57,38.56,83.91,195.04,Single-ply,SBD,M
Boys,55.79,DQ,Michael Le,Richardson Berkner,52.84,104.33,,,,Single-ply,SBD,M
Boys,59.87,1,Cesar Franco,Ferris,58.51,142.88,68.04,147.42,358.34,Single-ply,SBD,M
Boys,59.87,2,Marcelino Montano,Wills Point,59.19,111.13,77.11,140.61,328.85,Single-ply,SBD,M
Boys,59.87,3,Jose Montano,Wills Point,58.97,111.13,72.57,138.35,322.05,Single-ply,SBD,M
Boys,59.87,4,Matt Castillo,North Mesquite,57.15,104.33,65.77,129.27,299.37,Single-ply,SBD,M
Boys,59.87,DQ,Amanda Trevino #2,Ferris,59.87,104.33,47.63,102.06,,Single-ply,SBD,M
Boys,67.13,1,Nick Baril,Frisco Centennial,64.18,136.08,92.99,142.88,371.95,Single-ply,SBD,M
Boys,67.13,2,Juan Hernández #9,Ferris,67.13,136.08,90.72,142.88,369.68,Single-ply,SBD,M
Boys,67.13,3,Gerardo Romo,North Mesquite,62.6,124.74,99.79,136.08,360.61,Single-ply,SBD,M
Boys,67.13,4,Dakota Chavis,Justin Northwest,64.86,124.74,74.84,154.22,353.8,Single-ply,SBD,M
Boys,67.13,5,Ollie Collins,Ferris,66.22,136.08,77.11,136.08,349.27,Single-ply,SBD,M
Boys,67.13,6,Logan Young,Wills Point,64.18,133.81,68.04,142.88,344.73,Single-ply,SBD,M
Boys,67.13,7,Jb Johnson,North Mesquite,65.77,102.06,52.16,115.67,269.89,Single-ply,SBD,M
Boys,67.13,DQ,Kaytlin Griffith,Ferris,65.32,122.47,65.77,124.74,,Single-ply,SBD,M
Boys,67.13,DQ,Dre' Lenne Ricks,North Mesquite,62.6,136.08,72.57,,,Single-ply,SBD,M
Boys,74.84,1,Ryan Abraham,Frisco Centennial,74.16,176.9,136.08,204.12,517.1,Single-ply,SBD,M
Boys,74.84,2,Brandon Myles,North Mesquite,72.57,188.24,113.4,185.97,487.61,Single-ply,SBD,M
Boys,74.84,3,Horace Borders,North Mesquite,74.84,190.51,108.86,185.97,485.34,Single-ply,SBD,M
Boys,74.84,4,Brant Whitley,Justin Northwest,74.84,163.29,90.72,165.56,419.57,Single-ply,SBD,M
Boys,74.84,5,Bryan Tucker,Wills Point,72.35,136.08,97.52,142.88,376.48,Single-ply,SBD,M
Boys,74.84,6,Michael Norwood #2,Richardson Berkner,71.44,111.13,74.84,147.42,333.39,Single-ply,SBD,M
Boys,74.84,7,Tyler Jackson #3,Richardson Berkner,74.16,108.86,86.18,136.08,331.12,Single-ply,SBD,M
Boys,74.84,DQ,Tatiana Rodriguez #1,Ferris,72.57,142.88,65.77,136.08,,Single-ply,SBD,M
Boys,82.1,1,Lakeylon Rice,Frisco Centennial,78.93,190.51,115.67,204.12,510.29,Single-ply,SBD,M
Boys,82.1,2,Nick Bush,Frisco Centennial,76.66,158.76,113.4,181.44,453.59,Single-ply,SBD,M
Boys,82.1,3,Justin Owens,North Mesquite,78.02,151.95,111.13,181.44,444.52,Single-ply,SBD,M
Boys,82.1,4,Jon Le,Frisco Centennial,77.56,185.97,95.25,158.76,439.98,Single-ply,SBD,M
Boys,82.1,5,Zach Brown #2,North Mesquite,79.38,165.56,83.91,181.44,430.91,Single-ply,SBD,M
Boys,82.1,6,Marcus Gentry,Ferris,78.47,142.88,99.79,142.88,385.55,Single-ply,SBD,M
Boys,82.1,7,Ryan Boyd,North Mesquite,80.74,149.69,90.72,145.15,385.55,Single-ply,SBD,M
Boys,82.1,8,Trey Caldwell,Richardson Berkner,77.34,120.2,99.79,142.88,362.87,Single-ply,SBD,M
Boys,82.1,9,Greg Bernal,Richardson Berkner,79.83,108.86,92.99,124.74,326.59,Single-ply,SBD,M
Boys,82.1,10,Elijah Banks,North Mesquite,80.74,113.4,88.45,124.74,326.59,Single-ply,SBD,M
Boys,82.1,DQ,Juan Sierra,Richardson Berkner,81.65,147.42,,,,Single-ply,SBD,M
Boys,82.1,DQ,Courtland Smith,West Mesquite,79.38,183.7,,,,Single-ply,SBD,M
Boys,89.81,1,Jeff Stevens #2,Justin Northwest,84.59,231.33,142.88,238.14,612.35,Single-ply,SBD,M
Boys,89.81,2,Michael Ray,Justin Northwest,88.45,185.97,117.93,226.8,530.7,Single-ply,SBD,M
Boys,89.81,3,Chris Johnson,Wills Point,85.73,174.63,138.35,197.31,510.29,Single-ply,SBD,M
Boys,89.81,4,Logan Matamoros,Frisco Centennial,89.81,183.7,120.2,190.51,494.42,Single-ply,SBD,M
Boys,89.81,5,Eddie Alcanter,West Mesquite,85.5,190.51,131.54,158.76,480.81,Single-ply,SBD,M
Boys,89.81,6,Ja'Michael Smith,Richardson Berkner,87.77,154.22,106.59,181.44,442.25,Single-ply,SBD,M
Boys,89.81,7,Cole Cantrell,Frisco Centennial,86.64,158.76,113.4,158.76,430.91,Single-ply,SBD,M
Boys,89.81,8,Eduardo Garcia #6,Ferris,87.54,165.56,92.99,170.1,428.64,Single-ply,SBD,M
Boys,89.81,9,Nick Akins,West Mesquite,86.41,151.95,106.59,158.76,417.3,Single-ply,SBD,M
Boys,89.81,10,Kyle Luttrell,Ferris,89.58,154.22,97.52,163.29,415.04,Single-ply,SBD,M
Boys,89.81,11,Josh Blankenship,North Mesquite,83.91,117.93,72.57,147.42,337.93,Single-ply,SBD,M
Boys,89.81,DQ,Vanessa Ponce,Ferris,86.64,113.4,52.16,102.06,,Single-ply,SBD,M
Boys,89.81,DQ,Adrian Garcia,Ferris,87.54,,,,,Single-ply,SBD,M
Boys,99.79,1,Dezmond Scott,North Mesquite,92.99,217.72,117.93,226.8,562.45,Single-ply,SBD,M
Boys,99.79,2,Azeez Adewale,West Mesquite,98.66,204.12,124.74,201.85,530.7,Single-ply,SBD,M
Boys,99.79,3,Truett Lewis,Wills Point,98.88,181.44,124.74,190.51,496.68,Single-ply,SBD,M
Boys,99.79,4,Ryan Joyce,Frisco Centennial,94.8,190.51,113.4,190.51,494.42,Single-ply,SBD,M
Boys,99.79,5,Donovan Parker,North Mesquite,98.88,195.04,113.4,183.7,492.15,Single-ply,SBD,M
Boys,99.79,6,Leo Garcia,Justin Northwest,97.75,185.97,111.13,183.7,480.81,Single-ply,SBD,M
Boys,99.79,7,Matthew Martinez,North Mesquite,98.43,172.37,102.06,172.37,446.79,Single-ply,SBD,M
Boys,99.79,8,Martin Guerrero,Ferris,93.21,165.56,106.59,170.1,442.25,Single-ply,SBD,M
Boys,99.79,9,Jose Salinas,North Mesquite,97.52,154.22,115.67,172.37,442.25,Single-ply,SBD,M
Boys,99.79,10,Cody Huggins,Wills Point,94.57,181.44,79.38,147.42,408.23,Single-ply,SBD,M
Boys,99.79,11,Chase Ashworth,North Mesquite,99.79,142.88,92.99,170.1,405.97,Single-ply,SBD,M
Boys,99.79,12,Antonio Valdez,Richardson Berkner,99.34,154.22,97.52,147.42,399.16,Single-ply,SBD,M
Boys,99.79,13,Quincy Carter,Richardson Berkner,92.76,136.08,95.25,158.76,390.09,Single-ply,SBD,M
Boys,99.79,14,Cody Rowland,Wills Point,97.52,136.08,86.18,147.42,369.68,Single-ply,SBD,M
Boys,99.79,15,Lewis Eo,Richardson Berkner,98.43,142.88,81.65,136.08,360.61,Single-ply,SBD,M
Boys,99.79,16,Tyler Brown,North Mesquite,95.25,133.81,81.65,142.88,358.34,Single-ply,SBD,M
Boys,99.79,17,Rusty Adair,Wills Point,96.84,117.93,90.72,142.88,351.53,Single-ply,SBD,M
Boys,99.79,DQ,Robert Harris,Richardson Berkner,99.79,136.08,,136.08,,Single-ply,SBD,M
Boys,109.77,1,Markeith Thomas,West Mesquite,108.64,249.48,124.74,226.8,601.01,Single-ply,SBD,M
Boys,109.77,2,Dakota Norton,Justin Northwest,103.42,181.44,127.01,204.12,512.56,Single-ply,SBD,M
Boys,109.77,3,Mason Decker,Justin Northwest,105.46,195.04,117.93,181.44,494.42,Single-ply,SBD,M
Boys,109.77,4,Emmanuel Anderson,Richardson Berkner,109.77,170.1,113.4,183.7,467.2,Single-ply,SBD,M
Boys,109.77,5,Dilworth Dezmond,North Mesquite,103.87,183.7,99.79,170.1,453.59,Single-ply,SBD,M
Boys,109.77,DQ,Joanna Gomez,Ferris,107.05,124.74,52.16,117.93,,Single-ply,SBD,M
Boys,109.77,DQ,Devan Boswell,Wills Point,101.6,131.54,88.45,151.95,,Single-ply,SBD,M
Boys,124.74,1,Travis Stubblefield,Justin Northwest,113.4,226.8,158.76,226.8,612.35,Single-ply,SBD,M
Boys,124.74,2,Chase Appleby,Frisco Centennial,122.92,260.82,145.15,190.51,596.47,Single-ply,SBD,M
Boys,124.74,3,Ladarian James,West Mesquite,112.26,206.38,124.74,197.31,528.44,Single-ply,SBD,M
Boys,124.74,4,Roy Chaney,Ferris,121.11,217.72,115.67,190.51,523.9,Single-ply,SBD,M
Boys,124.74,5,Derrick Lockett,North Mesquite,120.66,213.19,136.08,163.29,512.56,Single-ply,SBD,M
Boys,124.74,6,Eric Nestares,North Mesquite,123.38,188.24,111.13,165.56,464.93,Single-ply,SBD,M
Boys,124.74,7,Jeremy Khuu,North Mesquite,120.66,181.44,102.06,174.63,458.13,Single-ply,SBD,M
Boys,124.74,8,Xavier Hardy,North Mesquite,115.21,165.56,111.13,149.69,426.38,Single-ply,SBD,M
Boys,124.74,DQ,Simon Espinosa,Ferris,120.66,154.22,104.33,,,Single-ply,SBD,M
Boys,124.74+,1,Sawyer Cooper,Justin Northwest,125.19,272.16,145.15,213.19,630.49,Single-ply,SBD,M
Boys,124.74+,2,Matt Holmes,Frisco Centennial,132,195.04,117.93,147.42,460.4,Single-ply,SBD,M
Boys,,NS,Brennan Sooter,Justin Northwest,,,,,,Single-ply,SBD,M
Boys,,NS,James Wright #1,Wills Point,,,,,,Single-ply,SBD,M
Boys,,NS,Anthony Marin,West Mesquite,,,,,,Single-ply,SBD,M
